i,Tiempo,V error
1,0.0, 0
2,0.107, -48
3,0.215, -15
4,0.323, 16
5,0.431, -15
6,0.541, 0
7,0.651, 0
8,0.758, 49
9,0.869, -49
10,0.978, 64
11,1.084, 0
12,1.302, 132
13,1.412, -1041
14,1.52, -752
15,1.631, -54
16,1.74, -244
17,1.849, -603
18,1.959, -133
19,2.067, 345
20,2.176, -367
21,2.285, 561
22,2.394, 292
23,2.502, -1178
24,2.611, 197
25,2.717, -331
26,2.824, 92
27,2.933, 459
28,3.041, -1109
29,3.148, 464
30,3.257, -523
31,3.366, 316
32,3.473, 157
33,3.581, -25
34,3.69, -168
35,3.799, 620
36,3.908, -462
37,4.018, -340
38,4.126, -17
39,4.234, -1272
40,4.341, -30
41,4.451, -519
42,4.558, 689
43,4.668, -1312
44,4.776, -65
45,4.886, -74
46,4.995, 312
47,5.104, 475
48,5.211, -83
49,5.321, -41
50,5.43, -58
51,5.539, 109
52,5.647, -54
53,5.756, 591
54,5.866, 341
55,5.992, 567
56,6.1, 1625
57,6.208, -173
58,6.316, 733
59,6.425, 484
60,6.536, 905
61,6.644, 1041
62,6.753, -103
63,6.86, -510
64,6.969, -246
65,7.077, -1462
66,7.185, 602
67,7.294, -360
68,7.401, -243
69,7.51, -41
70,7.618, -585
71,7.727, -1164
72,7.835, -506
73,7.945, -440
74,8.053, 752
75,8.162, -1092
76,8.269, 580
77,8.376, 503
78,8.486, -537
79,8.595, 927
80,8.705, -173
81,8.814, 887
82,8.923, 612
83,9.031, -1017
84,9.14, -362
85,9.248, 534
86,9.356, 814
87,9.464, -1479
88,9.572, -118
89,9.681, -1389
90,9.789, 514
91,9.897, -195
92,10.006, 395
93,10.114, -316
94,10.221, -23
95,10.331, -600
96,10.437, -92
97,10.548, -499
98,10.657, 1396
99,10.765, -129
100,10.874, -241
101,10.981, -607
102,11.09, 722
103,11.199, 1
104,11.308, -92
105,11.417, -111
106,11.526, -1197
107,11.633, 658
108,11.742, 389
109,11.851, -1484
110,11.96, 124
111,12.069, 766
112,12.179, 10
113,12.287, -1488
114,12.396, 1081
115,12.505, 634
116,12.614, 404
117,12.724, -371
118,12.833, -25
119,12.943, -222
120,13.053, 153
121,13.161, -323
122,13.269, 786
123,13.378, 197
124,13.489, -722
125,13.597, -431
126,13.705, -109
127,13.813, -91
128,13.923, 374
129,14.03, -682
130,14.139, -470
131,14.247, -591
132,14.354, 583
133,14.462, 437
134,14.572, -960
135,14.681, 634
136,14.79, 801
137,14.899, -255
138,15.006, -272
139,15.117, -781
140,15.225, -179
141,15.333, -1383
142,15.442, -688
143,15.551, 113
144,15.661, 1317
145,15.771, -942
146,15.882, 179
147,15.992, -431
148,16.1, 277
149,16.208, 1620
150,16.317, 204
151,16.424, 362
152,16.534, -254
153,16.642, 484
154,16.75, 742
155,16.86, -479
156,16.968, -226
157,17.076, -594
158,17.186, -437
159,17.294, 481
160,17.403, 188
161,17.511, 728
162,17.62, -221
163,17.731, 493
164,17.841, -331
165,17.95, -737
166,18.059, 580
167,18.168, -1046
168,18.277, -1499
169,18.383, -39
170,18.493, 741
171,18.602, 719
172,18.711, -47
173,18.819, 17
174,18.926, 420
175,19.034, 653
176,19.144, 352
177,19.254, -1561
178,19.361, 100
179,19.469, -60
180,19.577, -488
181,19.686, -451
182,19.795, -92
183,19.903, -356
184,20.012, -153
185,20.12, -17
186,20.228, -305
187,20.338, 708
188,20.446, 1424
189,20.555, 10
190,20.663, -369
191,20.769, 1625
192,20.878, 497
193,20.989, 933
194,21.097, -730
195,21.205, 468
196,21.314, -135
197,21.424, 309
198,21.534, 691
199,21.644, 1248
200,21.752, -360
201,21.861, -722
202,21.97, -288
203,22.081, 406
204,22.189, 1858
205,22.296, 611
206,22.406, -296
207,22.516, -772
208,22.628, -1131
209,22.753, -221
210,22.864, -1242
211,22.974, 363
212,23.08, -739
213,23.189, 468
214,23.297, -415
215,23.406, -105
216,23.513, -309
217,23.622, -332
218,23.73, -1272
219,23.838, -72
220,23.948, -1354
221,24.057, -224
222,24.166, -1477
223,24.273, -136
224,24.383, 199
225,24.493, 567
226,24.602, -455
227,24.711, -43
228,24.818, -74
229,24.927, 757
230,25.038, 92
231,25.148, 58
232,25.257, -395
233,25.365, -995
234,25.474, 63
235,25.583, 226
236,25.693, 728
237,25.8, 1017
238,25.908, -298
239,26.016, -600
240,26.124, -70
241,26.231, 340
242,26.34, 400
243,26.451, -151
244,26.56, -550
245,26.67, -710
246,26.778, 704
247,26.886, 72
248,26.996, -76
249,27.105, 785
250,27.213, 129
251,27.321, 61
252,27.431, -1241
253,27.539, -827
254,27.649, 477
255,27.758, 144
256,27.865, 554
257,27.973, -528
258,28.081, -279
259,28.19, -142
260,28.298, 576
261,28.408, 58
262,28.517, -36
263,28.625, -523
264,28.735, -691
265,28.843, -697
266,28.953, -226
267,29.063, 600
268,29.172, 34
269,29.282, 1242
270,29.391, 365
271,29.5, 561
272,29.609, 1488
273,29.72, -351
274,29.83, 856
275,29.939, 442
276,30.047, -504
277,30.157, -417
278,30.266, -797
279,30.376, -660
280,30.486, 3
281,30.594, -830
282,30.703, -715
283,30.812, -270
284,30.92, -100
285,31.029, -1209
286,31.138, -81
287,31.247, 78
288,31.355, -279
289,31.462, 818
290,31.571, -107
291,31.681, -74
292,31.788, -968
293,31.897, 135
294,32.005, -345
295,32.114, -680
296,32.222, 1191
297,32.331, -12
298,32.438, -197
299,32.546, -283
300,32.654, -27
301,32.764, 1133
302,32.874, 193
303,32.984, 622
304,33.091, 937
305,33.199, -219
306,33.307, 426
307,33.416, -634
308,33.527, -526
309,33.636, 261
310,33.744, 642
311,33.853, 1460
312,33.962, -179
313,34.071, -179
314,34.18, -1447
315,34.287, -49
316,34.395, 1112
317,34.506, -274
318,34.615, -146
319,34.725, -67
320,34.833, -385
321,34.941, 953
322,35.048, 250
323,35.157, -580
324,35.266, -338
325,35.376, 124
326,35.484, -169
327,35.591, 598
328,35.699, 114
329,35.806, 711
330,35.916, 202
331,36.024, 94
332,36.134, -204
333,36.242, -420
334,36.352, 429
335,36.461, -45
336,36.57, -885
337,36.678, -406
338,36.787, 166
339,36.896, -396
340,37.004, -171
341,37.112, -783
342,37.222, 1740
343,37.329, -634
344,37.439, -634
345,37.548, 323
346,37.656, 186
347,37.765, 58
348,37.874, -739
349,37.981, -426
350,38.089, 420
351,38.198, 1471
352,38.309, -528
353,38.417, 103
354,38.525, -574
355,38.633, -224
356,38.74, 407
357,38.85, -27
358,38.959, 60
359,39.066, -233
360,39.175, -664
361,39.283, -382
362,39.391, 1371
363,39.499, 382
364,39.608, 1696
365,39.718, -488
366,39.827, 283
367,39.934, -380
368,40.044, -259
369,40.152, -1116
370,40.261, 841
371,40.369, -252
372,40.476, -318
373,40.586, 1037
374,40.695, -488
375,40.805, -682
376,40.913, 589
377,41.021, -157
378,41.13, -431
379,41.239, 909
380,41.347, -320
381,41.456, 52
382,41.566, 329
383,41.675, -343
384,41.784, 188
385,41.891, -841
386,42.002, 428
387,42.11, -232
388,42.218, -38
389,42.327, 904
390,42.437, -16
391,42.547, -1035
392,42.656, 845
393,42.764, 221
394,42.874, 506
395,42.983, 440
396,43.091, 801
397,43.201, 65
398,43.309, -336
399,43.42, -521
400,43.529, -545
401,43.64, 133
402,43.748, -124
403,43.856, -283
404,43.966, 622
405,44.075, 1512
406,44.183, 761
407,44.289, -959
408,44.398, 680
409,44.507, 45
410,44.616, -1248
411,44.723, 268
412,44.831, 120
413,44.941, 704
414,45.048, 446
415,45.158, -517
416,45.265, -603
417,45.375, 927
418,45.484, 144
419,45.594, 290
420,45.703, -1112
421,45.812, 246
422,45.921, 840
423,46.03, -1147
424,46.139, 479
425,46.248, -545
426,46.356, -523
427,46.463, 504
428,46.575, -1057
429,46.681, -453
430,46.788, 190
431,46.898, 858
432,47.008, -979
433,47.132, -1273
434,47.24, -609
435,47.35, 684
436,47.46, 1740
437,47.569, -964
438,47.679, -127
439,47.786, -147
440,47.895, -384
441,48.002, 393
442,48.113, -179
443,48.222, -623
444,48.331, -331
445,48.44, 865
446,48.55, 140
447,48.658, 217
448,48.769, 931
449,48.877, -1731
450,48.986, 2035
451,49.095, -49
452,49.202, 1120
453,49.311, 1250
454,49.422, 50
455,49.532, 488
456,49.641, 1497
457,49.75, -173
458,49.858, 45
459,49.966, -596
460,50.075, -270
461,50.184, -248
462,50.293, 938
463,50.402, 1050
464,50.512, 418
465,50.62, 411
466,50.729, -208
467,50.836, 1004
468,50.947, -614
469,51.055, -607
470,51.164, 1133
471,51.273, -36
472,51.382, -331
473,51.489, -27
474,51.599, -1290
475,51.707, -506
476,51.815, -1499
477,51.923, 993
478,52.032, 556
479,52.139, -331
480,52.249, 922
481,52.357, 1
482,52.464, 56
483,52.577, -72
484,52.685, -52
485,52.793, 585
486,52.903, -160
487,53.011, -162
488,53.118, 155
489,53.228, 422
490,53.337, 17
491,53.447, -816
492,53.555, -607
493,53.663, -380
494,53.772, -32
495,53.883, 1455
496,53.993, 649
497,54.103, 794
498,54.212, -849
499,54.321, -120
500,54.43, 96
501,54.539, -325
502,54.649, 766
503,54.758, 735
504,54.866, 76
505,54.976, -367
506,55.086, -417
507,55.196, 515
508,55.303, -1103
509,55.413, -332
510,55.522, -623
511,55.632, 481
512,55.74, -49
513,55.847, -325
514,55.956, 17
515,56.066, -395
516,56.174, -1175
517,56.281, 667
518,56.39, 854
519,56.498, 265
520,56.608, 39
521,56.717, 710
522,56.825, -122
523,56.933, 618
524,57.043, -354
525,57.151, -28
526,57.26, -12
527,57.368, -378
528,57.476, 36
529,57.584, 362
530,57.69, 173
531,57.798, 585
532,57.906, -17
533,58.014, 1057
534,58.122, -114
535,58.231, 1506
536,58.341, -298
537,58.451, 389
538,58.559, 1380
539,58.668, -389
540,58.779, 598
541,58.887, -984
542,58.996, 81
543,59.105, 135
544,59.216, -329
545,59.323, -105
546,59.43, 114
547,59.54, -279
548,59.649, -642
549,59.756, 708
550,59.864, 1653
551,59.973, 741
552,60.081, -61
553,60.191, -341
554,60.299, 607
555,60.406, -111
556,60.514, 1
557,60.624, -554
558,60.732, 470
559,60.841, -376
560,60.949, 664
561,61.059, 481
