i,Tiempo,V error
1,0.0, -60
2,0.109, 11
3,0.218, 60
4,0.324, 24
5,0.433, 24
6,0.544, -13
7,0.652, -24
8,0.76, -13
9,0.868, 13
10,0.977, 0
11,1.085, -11
12,1.303, 374
13,1.412, -333
14,1.521, -673
15,1.631, 766
16,1.74, 570
17,1.848, 512
18,1.958, -318
19,2.067, -85
20,2.175, -32
21,2.285, -898
22,2.395, 38
23,2.503, -83
24,2.613, 3
25,2.723, -545
26,2.834, -58
27,2.943, 788
28,3.052, 418
29,3.161, -316
30,3.27, -466
31,3.379, -257
32,3.487, -1462
33,3.598, -431
34,3.706, -885
35,3.815, -199
36,3.924, -400
37,4.032, 87
38,4.141, 305
39,4.251, 818
40,4.36, -1501
41,4.468, 874
42,4.578, -721
43,4.686, -622
44,4.795, 17
45,4.905, 380
46,5.015, -479
47,5.121, -208
48,5.23, -263
49,5.338, -1070
50,5.447, -742
51,5.557, -268
52,5.667, 1065
53,5.775, 794
54,5.884, -450
55,5.992, 455
56,6.1, -548
57,6.21, -1
58,6.319, 146
59,6.429, 581
60,6.535, 689
61,6.647, -226
62,6.754, -521
63,6.861, 144
64,6.969, 843
65,7.079, 1067
66,7.188, -389
67,7.297, -87
68,7.406, -208
69,7.516, 1061
70,7.624, 268
71,7.732, 774
72,7.841, 669
73,7.951, 545
74,8.058, -56
75,8.168, 636
76,8.277, -393
77,8.384, -268
78,8.493, 173
79,8.603, -746
80,8.713, -517
81,8.823, 131
82,8.931, 951
83,9.04, 332
84,9.15, -435
85,9.258, -195
86,9.368, -173
87,9.477, -155
88,9.584, -656
89,9.694, 69
90,9.802, 226
91,9.911, 792
92,10.02, -288
93,10.129, -43
94,10.237, -662
95,10.346, -1588
96,10.454, -83
97,10.562, 612
98,10.671, -109
99,10.78, 1447
100,10.888, -735
101,10.997, 288
102,11.103, 911
103,11.213, -1281
104,11.321, -677
105,11.431, 334
106,11.54, -210
107,11.65, 76
108,11.759, -1065
109,11.869, -1189
110,11.979, 1105
111,12.088, -713
112,12.197, 135
113,12.307, -1100
114,12.416, 658
115,12.526, -1078
116,12.633, 118
117,12.741, -3
118,12.851, 565
119,12.962, -12
120,13.071, 702
121,13.18, 131
122,13.288, -131
123,13.396, 312
124,13.508, -501
125,13.616, -125
126,13.723, -290
127,13.833, 905
128,13.943, -382
129,14.052, 85
130,14.163, -812
131,14.272, 852
132,14.38, 680
133,14.49, 830
134,14.598, 852
135,14.706, -376
136,14.815, -407
137,14.925, 569
138,15.035, 312
139,15.144, 393
140,15.253, -1043
141,15.361, -276
142,15.468, 623
143,15.575, -362
144,15.683, -547
145,15.791, 871
146,15.901, -473
147,16.012, 102
148,16.121, -457
149,16.23, 140
150,16.339, -395
151,16.449, 180
152,16.559, 1594
153,16.668, -459
154,16.776, -351
155,16.884, 334
156,16.994, -125
157,17.102, 28
158,17.212, -162
159,17.322, -323
160,17.429, -759
161,17.539, 622
162,17.648, 69
163,17.757, -133
164,17.866, -318
165,17.975, -920
166,18.083, -700
167,18.194, -426
168,18.304, 94
169,18.413, -213
170,18.522, -127
171,18.631, -1
172,18.74, -999
173,18.85, -173
174,18.959, -270
175,19.067, -155
176,19.176, -177
177,19.285, 814
178,19.396, 102
179,19.505, 153
180,19.613, -367
181,19.723, -581
182,19.832, -109
183,19.94, -1618
184,20.047, 1577
185,20.158, 307
186,20.266, -351
187,20.375, -1559
188,20.486, 633
189,20.594, 89
190,20.703, 684
191,20.813, 836
192,20.924, 8
193,21.031, -329
194,21.14, 309
195,21.264, -363
196,21.373, -413
197,21.482, 354
198,21.589, -461
199,21.698, 226
200,21.805, 312
201,21.914, 759
202,22.024, 922
203,22.134, -190
204,22.244, -371
205,22.354, -321
206,22.463, -6
207,22.572, -338
208,22.682, 149
209,22.792, -450
210,22.9, 63
211,23.01, 230
212,23.119, -184
213,23.229, 1299
214,23.337, -953
215,23.446, -378
216,23.556, -89
217,23.665, 622
218,23.774, -823
219,23.884, 1173
220,23.996, 651
221,24.104, 1559
222,24.214, 217
223,24.322, -450
224,24.431, 570
225,24.539, 728
226,24.649, -949
227,24.757, -1219
228,24.867, -495
229,24.973, -459
230,25.082, 233
231,25.191, -418
232,25.301, -697
233,25.409, -499
234,25.517, -140
235,25.627, -373
236,25.735, -1149
237,25.843, 772
238,25.953, -622
239,26.06, 924
240,26.169, 473
241,26.278, 382
242,26.387, -360
243,26.496, 285
244,26.604, -288
245,26.712, -283
246,26.82, 76
247,26.93, -374
248,27.04, 796
249,27.149, -224
250,27.256, -362
251,27.364, -387
252,27.472, 285
253,27.581, 1
254,27.69, 74
255,27.799, -433
256,27.911, -114
257,28.018, 1764
258,28.126, 125
259,28.236, -16
260,28.345, -433
261,28.455, 140
262,28.563, 283
263,28.672, 666
264,28.781, 285
265,28.89, 997
266,28.999, 406
267,29.109, -151
268,29.218, 133
269,29.326, -431
270,29.436, 3
271,29.545, -409
272,29.656, 929
273,29.763, 402
274,29.871, -113
275,29.98, -329
276,30.089, 616
277,30.197, -210
278,30.305, -488
279,30.414, 329
280,30.525, 968
281,30.632, -265
282,30.741, 439
283,30.849, 63
284,30.958, 292
285,31.067, 341
286,31.175, -331
287,31.283, -395
288,31.391, 770
289,31.501, 47
290,31.613, 98
291,31.722, -779
292,31.829, 785
293,31.939, 501
294,32.05, -92
295,32.158, -867
296,32.267, -259
297,32.378, 468
298,32.486, 413
299,32.593, 686
300,32.7, -80
301,32.807, -221
302,32.917, -942
303,33.027, 140
304,33.137, -398
305,33.246, -193
306,33.357, 547
307,33.464, -658
308,33.574, 30
309,33.684, 1037
310,33.796, -548
311,33.907, -316
312,34.016, -1004
313,34.126, -506
314,34.235, -118
315,34.346, -439
316,34.454, -332
317,34.563, -1101
318,34.671, 248
319,34.78, 17
320,34.89, -91
321,34.998, 913
322,35.108, -270
323,35.217, -307
324,35.327, -39
325,35.437, -124
326,35.547, 202
327,35.657, 814
328,35.768, -371
329,35.877, -338
330,35.987, 334
331,36.095, 265
332,36.206, -91
333,36.315, 775
334,36.424, -135
335,36.534, -261
336,36.643, 160
337,36.753, -182
338,36.861, -462
339,36.969, 81
340,37.078, -1035
341,37.188, -186
342,37.297, 182
343,37.406, -981
344,37.514, -1237
345,37.624, -105
346,37.734, 27
347,37.842, 424
348,37.952, -957
349,38.061, -1105
350,38.17, -131
351,38.28, -358
352,38.39, 711
353,38.498, -1182
354,38.608, -1279
355,38.717, -36
356,38.827, 517
357,38.937, -8
358,39.046, 647
359,39.155, -343
360,39.262, -448
361,39.37, -164
362,39.48, 316
363,39.588, 1035
364,39.697, -334
365,39.807, 651
366,39.914, -459
367,40.024, -94
368,40.132, -499
369,40.239, 52
370,40.348, 384
371,40.459, 1180
372,40.568, 5
373,40.678, 248
374,40.787, -878
375,40.897, -933
376,41.007, 759
377,41.118, 338
378,41.228, 1643
379,41.337, -526
380,41.446, -105
381,41.556, 63
382,41.666, 334
383,41.775, 428
384,41.885, 113
385,41.994, -124
386,42.104, 65
387,42.213, -244
388,42.322, -1003
389,42.431, -5
390,42.542, 70
391,42.651, 208
392,42.761, -1094
393,42.87, -239
394,42.978, 554
395,43.089, 352
396,43.197, -468
397,43.309, 761
398,43.417, -664
399,43.525, -1081
400,43.633, 111
401,43.743, -288
402,43.852, 536
403,43.96, -547
404,44.067, -440
405,44.177, 268
406,44.284, -41
407,44.393, -164
408,44.502, 89
409,44.612, 120
410,44.722, -81
411,44.831, -792
412,44.939, -807
413,45.047, -27
414,45.154, 349
415,45.262, 70
416,45.373, -210
417,45.482, 206
418,45.591, 1008
419,45.698, -1916
420,45.822, 1046
421,45.931, -17
422,46.039, 270
423,46.148, -448
424,46.257, -360
425,46.367, -444
426,46.475, 336
427,46.584, -292
428,46.692, 636
429,46.803, 475
430,46.912, -345
431,47.021, -777
432,47.13, -265
433,47.238, 211
434,47.347, 774
435,47.458, -431
436,47.566, -125
437,47.675, 702
438,47.785, 1024
439,47.894, 468
440,48.004, 70
441,48.112, 770
442,48.221, -69
443,48.329, 1003
444,48.438, 45
445,48.547, 851
446,48.657, 103
447,48.767, 54
448,48.877, 10
449,48.987, -735
450,49.094, -118
451,49.201, 563
452,49.308, -1339
453,49.417, -468
454,49.525, -186
455,49.634, 662
456,49.743, 341
457,49.852, 1012
458,49.961, 721
459,50.068, 1631
460,50.175, -508
461,50.284, 1272
462,50.395, 54
463,50.503, -224
464,50.608, 155
465,50.719, -14
466,50.828, -1230
467,50.938, 801
468,51.044, -847
469,51.152, -656
470,51.259, -202
471,51.367, -622
472,51.475, -750
473,51.582, -217
474,51.689, -309
475,51.798, -72
476,51.909, -510
477,52.017, 1200
478,52.126, 60
479,52.236, -268
480,52.343, -96
481,52.453, 80
482,52.563, -490
483,52.672, 918
484,52.78, 107
485,52.889, 642
486,52.997, -52
487,53.103, 191
488,53.211, -563
489,53.32, -444
490,53.432, 74
491,53.541, -404
492,53.649, -464
493,53.757, -1255
494,53.865, 488
495,53.974, 243
496,54.083, 76
497,54.192, -349
498,54.302, 702
499,54.41, -459
500,54.519, -74
501,54.627, 1187
502,54.735, 411
503,54.843, 746
504,54.953, -541
505,55.061, 433
506,55.17, 257
507,55.278, -440
508,55.39, -680
509,55.498, -1178
510,55.607, 175
511,55.715, -830
512,55.824, -173
513,55.929, -70
514,56.038, -363
515,56.145, -190
516,56.252, -503
517,56.362, 8
518,56.471, -1279
519,56.579, 80
520,56.687, -409
521,56.795, -168
522,56.905, 36
523,57.013, -169
524,57.121, -294
525,57.231, 171
526,57.339, -570
527,57.446, -598
528,57.555, 653
529,57.663, 1206
530,57.771, -1374
531,57.879, 113
532,57.988, -120
533,58.096, -199
534,58.206, 374
535,58.315, -168
536,58.423, -213
537,58.531, 768
538,58.639, 812
539,58.749, -211
540,58.858, -116
541,58.965, -920
542,59.073, -376
543,59.183, -603
544,59.293, 102
545,59.402, 199
546,59.51, 455
547,59.619, 854
548,59.728, -413
549,59.836, -490
550,59.944, -129
551,60.052, 149
552,60.162, -728
553,60.272, -742
554,60.38, -616
555,60.488, -591
556,60.597, -993
557,60.706, -433
558,60.815, 1435
559,60.925, -43
560,61.034, -563
