i,Tiempo,V error
1,0.0, 0
2,0.108, 0
3,0.218, 18
4,0.327, 75
5,0.432, 0
6,0.544, 18
7,0.653, -38
8,0.761, 0
9,0.871, 0
10,0.979, 0
11,1.086, 18
12,1.305, 878
13,1.415, 1051
14,1.525, 395
15,1.632, -203
16,1.74, 49
17,1.848, 279
18,1.957, -138
19,2.065, -1477
20,2.174, -331
21,2.284, 12
22,2.393, 920
23,2.501, -503
24,2.61, 764
25,2.721, 180
26,2.83, -1524
27,2.939, -327
28,3.048, -565
29,3.156, 396
30,3.265, 437
31,3.374, 488
32,3.482, -38
33,3.592, 1664
34,3.7, -433
35,3.81, -576
36,3.916, 1198
37,4.024, 1143
38,4.14, -195
39,4.255, 693
40,4.363, -78
41,4.472, -250
42,4.582, 992
43,4.691, -905
44,4.801, -136
45,4.911, -851
46,5.02, 675
47,5.128, 552
48,5.235, 276
49,5.343, -255
50,5.452, 336
51,5.563, 779
52,5.67, -450
53,5.78, 1140
54,5.892, -146
55,6.0, -1319
56,6.11, -21
57,6.219, -283
58,6.326, 488
59,6.433, 852
60,6.542, -450
61,6.649, -468
62,6.758, -83
63,6.865, 417
64,6.973, -1065
65,7.081, 799
66,7.186, 570
67,7.294, -417
68,7.404, -1026
69,7.511, -649
70,7.62, 572
71,7.728, 168
72,7.835, 127
73,7.943, -80
74,8.053, -503
75,8.162, 711
76,8.273, -232
77,8.379, -39
78,8.491, -504
79,8.599, -462
80,8.708, 801
81,8.817, 321
82,8.925, -96
83,9.036, 1045
84,9.144, 1502
85,9.254, 1396
86,9.362, -955
87,9.471, -862
88,9.58, 81
89,9.69, 415
90,9.798, -1123
91,9.907, -248
92,10.014, 918
93,10.122, -74
94,10.229, 184
95,10.339, -191
96,10.447, 636
97,10.554, 490
98,10.664, -76
99,10.771, -144
100,10.881, -404
101,10.988, 23
102,11.096, -30
103,11.204, -373
104,11.313, -321
105,11.422, 146
106,11.531, 160
107,11.641, 294
108,11.749, 268
109,11.856, 464
110,11.965, -413
111,12.075, 1037
112,12.182, -153
113,12.293, -973
114,12.4, 790
115,12.511, -1305
116,12.618, -558
117,12.725, 660
118,12.832, 193
119,12.939, -63
120,13.047, -373
121,13.155, -61
122,13.262, 393
123,13.37, -450
124,13.478, -620
125,13.586, -525
126,13.693, 8
127,13.801, -294
128,13.909, 545
129,14.016, 252
130,14.124, 744
131,14.232, 323
132,14.34, 953
133,14.448, -413
134,14.555, -612
135,14.663, -710
136,14.773, -602
137,14.881, -700
138,14.989, -404
139,15.096, -1570
140,15.203, 41
141,15.314, -1182
142,15.422, 116
143,15.531, 92
144,15.639, 140
145,15.748, -43
146,15.856, -94
147,15.963, -85
148,16.072, -329
149,16.179, 594
150,16.286, -1590
151,16.395, 753
152,16.502, 246
153,16.61, -164
154,16.719, 92
155,16.828, -144
156,16.936, 755
157,17.043, 1189
158,17.151, -689
159,17.259, 153
160,17.365, 673
161,17.473, 675
162,17.581, -243
163,17.69, -331
164,17.797, 924
165,17.905, -620
166,18.014, 664
167,18.121, 638
168,18.231, -761
169,18.34, -1458
170,18.448, -387
171,18.556, -237
172,18.664, 827
173,18.773, 545
174,18.88, 580
175,18.987, 924
176,19.095, -309
177,19.205, -810
178,19.314, 706
179,19.423, 479
180,19.53, 243
181,19.636, 265
182,19.746, -338
183,19.853, -180
184,19.961, 417
185,20.069, -290
186,20.177, 215
187,20.285, 215
188,20.393, -455
189,20.501, -722
190,20.611, 495
191,20.719, -420
192,20.827, 30
193,20.934, 829
194,21.041, 127
195,21.15, 60
196,21.257, -188
197,21.365, -226
198,21.474, -686
199,21.582, 979
200,21.693, -276
201,21.8, -230
202,21.907, 52
203,22.015, 252
204,22.123, 10
205,22.231, -365
206,22.339, -272
207,22.447, 63
208,22.556, -863
209,22.665, 1649
210,22.771, 431
211,22.88, 120
212,22.987, -179
213,23.096, 210
214,23.204, -585
215,23.312, -320
216,23.418, -352
217,23.525, 1226
218,23.632, 87
219,23.741, 1521
220,23.848, 786
221,23.954, 543
222,24.064, -389
223,24.172, 1052
224,24.28, 142
225,24.389, 611
226,24.497, -503
227,24.606, 536
228,24.731, -67
229,24.841, 997
230,24.954, -739
231,25.064, 395
232,25.172, 224
233,25.281, 461
234,25.39, -470
235,25.5, 87
236,25.608, -530
237,25.719, 678
238,25.827, 981
239,25.937, 536
240,26.045, -305
241,26.154, -737
242,26.263, 351
243,26.372, -239
244,26.48, -1140
245,26.59, 960
246,26.697, 746
247,26.805, -347
248,26.913, -688
249,27.021, 607
250,27.131, 1674
251,27.24, -415
252,27.349, -561
253,27.458, -1543
254,27.565, 862
255,27.672, 999
256,27.78, -515
257,27.887, 788
258,27.996, -1116
259,28.105, -479
260,28.215, -852
261,28.323, -457
262,28.432, -559
263,28.541, 488
264,28.65, -1136
265,28.757, 821
266,28.865, 691
267,28.973, 5
268,29.083, 233
269,29.191, -1297
270,29.3, 1411
271,29.407, -400
272,29.517, -490
273,29.626, -402
274,29.734, -268
275,29.841, -105
276,29.951, -39
277,30.059, 836
278,30.169, 424
279,30.279, -726
280,30.387, 241
281,30.494, 43
282,30.603, -431
283,30.713, 442
284,30.82, -644
285,30.928, -609
286,31.036, 851
287,31.144, 290
288,31.252, 450
289,31.361, -219
290,31.47, -5
291,31.58, -1056
292,31.687, -510
293,31.796, 451
294,31.905, -816
295,32.013, -682
296,32.122, 437
297,32.23, 338
298,32.338, -1123
299,32.445, 666
300,32.554, 982
301,32.664, 102
302,32.772, 157
303,32.88, 594
304,32.987, -113
305,33.094, 699
306,33.202, 389
307,33.311, -486
308,33.419, -228
309,33.528, 607
310,33.636, 107
311,33.744, 669
312,33.851, 188
313,33.959, -640
314,34.068, 880
315,34.178, 611
316,34.286, -160
317,34.395, 422
318,34.506, -1436
319,34.614, -272
320,34.722, 76
321,34.83, 371
322,34.941, -439
323,35.048, -255
324,35.159, -347
325,35.269, -504
326,35.377, 255
327,35.487, 583
328,35.596, -58
329,35.703, -636
330,35.811, 332
331,35.921, -761
332,36.029, 841
333,36.136, -470
334,36.243, 179
335,36.352, 763
336,36.459, 816
337,36.571, -168
338,36.679, -118
339,36.788, 135
340,36.897, 830
341,37.005, -292
342,37.112, 627
343,37.22, -237
344,37.329, -206
345,37.436, -325
346,37.544, -711
347,37.653, -351
348,37.762, 265
349,37.871, 471
350,37.979, 50
351,38.087, -1316
352,38.194, -1089
353,38.303, 796
354,38.41, 742
355,38.518, 622
356,38.627, 16
357,38.736, -554
358,38.844, 325
359,38.953, 1314
360,39.061, 1116
361,39.171, 14
362,39.278, 548
363,39.388, -1092
364,39.496, -1235
365,39.606, 1198
366,39.715, -323
367,39.822, 746
368,39.932, -1241
369,40.039, 935
370,40.146, 314
371,40.256, -1493
372,40.366, -28
373,40.473, 492
374,40.581, -149
375,40.691, 843
376,40.8, -16
377,40.908, -334
378,41.015, 492
379,41.122, 195
380,41.232, 693
381,41.34, 678
382,41.448, -1341
383,41.556, 750
384,41.664, -158
385,41.773, -215
386,41.881, 543
387,41.99, 821
388,42.096, -199
389,42.207, 616
390,42.315, 100
391,42.423, -1231
392,42.531, 362
393,42.639, 195
394,42.748, 389
395,42.858, 667
396,42.968, -1189
397,43.075, -1396
398,43.182, -677
399,43.291, 230
400,43.4, 402
401,43.508, -147
402,43.616, 1565
403,43.725, 794
404,43.835, -296
405,43.942, 689
406,44.05, -85
407,44.158, -252
408,44.265, 331
409,44.372, -1411
410,44.483, -28
411,44.592, -208
412,44.701, -85
413,44.809, 120
414,44.917, -327
415,45.025, 697
416,45.134, 814
417,45.242, 462
418,45.351, -54
419,45.459, -270
420,45.57, -596
421,45.678, 100
422,45.787, 814
423,45.896, 113
424,46.001, -563
425,46.126, 660
426,46.234, -411
427,46.343, -391
428,46.451, 808
429,46.558, 76
430,46.666, 155
431,46.778, -266
432,46.886, -38
433,46.994, -96
434,47.103, -1418
435,47.213, 243
436,47.322, -301
437,47.431, -512
438,47.54, -638
439,47.647, 391
440,47.757, 67
441,47.865, -1363
442,47.971, 880
443,48.082, 255
444,48.19, 552
445,48.298, -374
446,48.406, 902
447,48.515, -239
448,48.625, 74
449,48.732, -442
450,48.84, 468
451,48.947, -1358
452,49.055, -277
453,49.164, 1488
454,49.271, -239
455,49.379, 656
456,49.487, -387
457,49.595, -39
458,49.703, -32
459,49.812, -565
460,49.922, 1253
461,50.03, 746
462,50.139, 241
463,50.247, 1107
464,50.355, -1107
465,50.462, -446
466,50.57, 464
467,50.676, 367
468,50.787, 927
469,50.894, 244
470,51.002, 742
471,51.11, -276
472,51.219, 274
473,51.327, -105
474,51.433, -270
475,51.541, 63
476,51.65, 305
477,51.759, -116
478,51.867, 1136
479,51.977, 80
480,52.084, -797
481,52.193, 28
482,52.302, 488
483,52.409, -818
484,52.518, -415
485,52.626, 1523
486,52.736, -1475
487,52.846, -1241
488,52.954, -135
489,53.062, -442
490,53.169, 309
491,53.278, -28
492,53.386, 105
493,53.495, 1581
494,53.603, 979
495,53.712, 735
496,53.82, -327
497,53.926, -1089
498,54.035, -356
499,54.144, 118
500,54.253, 717
501,54.361, -605
502,54.469, 69
503,54.578, 391
504,54.686, -1343
505,54.794, 576
506,54.901, 898
507,55.01, -420
508,55.119, 87
509,55.227, 561
510,55.336, 19
511,55.446, -347
512,55.554, -550
513,55.66, 722
514,55.766, 63
515,55.874, 1209
516,55.984, 369
517,56.091, -343
518,56.198, -1208
519,56.306, -296
520,56.412, -312
521,56.519, -503
522,56.627, -488
523,56.734, -1446
524,56.842, -202
525,56.951, 1424
526,57.058, 536
527,57.168, -398
528,57.276, -995
529,57.385, 832
530,57.493, 536
531,57.602, 16
532,57.709, -1656
533,57.819, -30
534,57.927, -27
535,58.036, 290
536,58.141, 43
537,58.251, -574
538,58.359, 1457
539,58.469, 841
540,58.578, 916
541,58.687, -52
542,58.796, 807
543,58.903, -525
544,59.012, -486
545,59.119, -67
546,59.228, -1704
547,59.336, -475
548,59.443, -484
549,59.55, 818
550,59.658, 78
551,59.765, 719
552,59.876, 114
553,59.984, 160
554,60.092, 70
555,60.2, 266
556,60.308, 153
557,60.416, -184
558,60.523, -420
559,60.63, -244
560,60.739, -287
561,60.848, -1202
562,60.955, -481
563,61.063, -294
