i,Tiempo,V error
1,0.0, -16
2,0.11, -66
3,0.219, 0
4,0.327, -16
5,0.437, 0
6,0.545, -18
7,0.654, -51
8,0.763, -84
9,0.871, -33
10,0.981, -18
11,1.089, -18
12,1.307, -414
13,1.416, -575
14,1.523, -688
15,1.631, -148
16,1.742, -1380
17,1.849, -118
18,1.958, -142
19,2.065, 118
20,2.173, -1160
21,2.282, 298
22,2.39, 246
23,2.497, 345
24,2.605, -160
25,2.714, -964
26,2.822, 966
27,2.929, 135
28,3.039, -605
29,3.147, 710
30,3.254, 30
31,3.361, 257
32,3.469, 411
33,3.58, -548
34,3.687, 1252
35,3.795, -268
36,3.904, 369
37,4.02, -924
38,4.135, -708
39,4.243, -109
40,4.353, 561
41,4.46, -41
42,4.57, -739
43,4.678, -65
44,4.787, -792
45,4.895, -757
46,5.003, 431
47,5.11, -208
48,5.219, -352
49,5.328, 116
50,5.437, -484
51,5.547, -255
52,5.654, 971
53,5.762, -922
54,5.869, 39
55,5.976, -710
56,6.086, 288
57,6.194, -43
58,6.301, -61
59,6.408, -358
60,6.516, -283
61,6.623, 204
62,6.732, 905
63,6.84, -314
64,6.948, -1442
65,7.057, 43
66,7.165, 17
67,7.274, 78
68,7.38, -442
69,7.488, -131
70,7.596, -17
71,7.702, 964
72,7.81, -819
73,7.917, 788
74,8.026, -197
75,8.137, 199
76,8.244, 493
77,8.351, 396
78,8.46, 334
79,8.567, -1004
80,8.676, 1111
81,8.785, -792
82,8.891, -261
83,9.001, -841
84,9.109, 1889
85,9.218, -962
86,9.326, 356
87,9.434, -545
88,9.543, 411
89,9.65, 499
90,9.758, 797
91,9.869, -6
92,9.977, -569
93,10.085, 169
94,10.194, -146
95,10.3, 893
96,10.408, 695
97,10.519, -1147
98,10.627, 1272
99,10.734, 116
100,10.841, -45
101,10.946, 558
102,11.054, -81
103,11.164, 801
104,11.272, -5
105,11.38, 56
106,11.49, -299
107,11.597, 446
108,11.704, -1689
109,11.812, -376
110,11.921, 631
111,12.029, -810
112,12.136, -210
113,12.244, -455
114,12.351, 757
115,12.46, 61
116,12.57, -730
117,12.678, 885
118,12.786, 1447
119,12.895, -283
120,13.006, 1376
121,13.112, 832
122,13.221, 482
123,13.327, -283
124,13.434, -329
125,13.54, 380
126,13.65, -243
127,13.758, 1501
128,13.866, 1354
129,13.975, -530
130,14.083, 655
131,14.19, -191
132,14.297, -898
133,14.406, -74
134,14.514, 354
135,14.622, -197
136,14.733, -56
137,14.841, 556
138,14.95, -290
139,15.058, 779
140,15.166, 587
141,15.275, -155
142,15.383, -120
143,15.492, 1158
144,15.601, 213
145,15.708, -147
146,15.816, -1239
147,15.924, -334
148,16.033, 378
149,16.142, -384
150,16.251, -248
151,16.373, 1552
152,16.482, 783
153,16.592, -30
154,16.7, -310
155,16.809, -351
156,16.917, 109
157,17.025, -1418
158,17.134, -435
159,17.243, 938
160,17.352, 63
161,17.461, 986
162,17.57, -1081
163,17.679, 1275
164,17.788, -140
165,17.896, 292
166,18.006, -109
167,18.115, -376
168,18.223, -316
169,18.333, 775
170,18.44, 420
171,18.547, -352
172,18.657, -268
173,18.765, -303
174,18.875, 552
175,18.982, -208
176,19.093, -188
177,19.201, 303
178,19.312, -1039
179,19.419, -1090
180,19.525, -272
181,19.635, 360
182,19.745, -155
183,19.853, -1021
184,19.963, -184
185,20.071, -1035
186,20.18, 490
187,20.29, -91
188,20.398, 1534
189,20.507, -396
190,20.615, -39
191,20.724, -819
192,20.834, -151
193,20.943, -986
194,21.05, -622
195,21.16, -371
196,21.269, 138
197,21.379, 563
198,21.488, 591
199,21.597, -226
200,21.708, 407
201,21.816, 1338
202,21.925, 1290
203,22.034, 340
204,22.142, -1425
205,22.25, -149
206,22.358, -3
207,22.467, 471
208,22.574, 314
209,22.683, -250
210,22.792, -120
211,22.901, 1772
212,23.009, -530
213,23.117, 660
214,23.225, -92
215,23.335, 730
216,23.445, 1
217,23.552, -786
218,23.66, -695
219,23.77, -316
220,23.88, -466
221,23.988, -1579
222,24.096, -186
223,24.205, 305
224,24.312, -519
225,24.42, -261
226,24.526, -49
227,24.635, 1004
228,24.745, 733
229,24.853, 331
230,24.96, -439
231,25.068, 160
232,25.176, -437
233,25.285, 565
234,25.394, -83
235,25.501, 1323
236,25.609, -149
237,25.717, 484
238,25.827, -140
239,25.936, -309
240,26.044, -263
241,26.151, 39
242,26.26, 103
243,26.369, 737
244,26.479, 367
245,26.587, 201
246,26.695, 36
247,26.805, -347
248,26.915, -252
249,27.023, -404
250,27.13, -277
251,27.238, 127
252,27.345, 1081
253,27.454, -23
254,27.561, -812
255,27.67, 999
256,27.779, -217
257,27.886, -422
258,27.994, -561
259,28.102, -655
260,28.209, -578
261,28.32, 320
262,28.429, -382
263,28.538, -155
264,28.648, -510
265,28.756, 391
266,28.865, -208
267,28.974, -248
268,29.082, -131
269,29.191, -710
270,29.3, 1905
271,29.408, 1228
272,29.516, -69
273,29.624, 266
274,29.732, 25
275,29.841, -384
276,29.95, -177
277,30.058, -1532
278,30.167, 1532
279,30.276, -127
280,30.383, -151
281,30.491, -999
282,30.598, 74
283,30.706, -708
284,30.814, 937
285,30.922, 1197
286,31.032, 640
287,31.139, 750
288,31.247, -169
289,31.355, -900
290,31.463, 96
291,31.573, 98
292,31.682, 521
293,31.792, 186
294,31.9, 656
295,32.009, 1495
296,32.118, 38
297,32.228, -424
298,32.337, 493
299,32.446, 1204
300,32.555, -827
301,32.664, 634
302,32.772, 691
303,32.88, -382
304,32.988, 429
305,33.095, 98
306,33.205, 32
307,33.316, 281
308,33.426, -367
309,33.534, 797
310,33.642, 158
311,33.75, -680
312,33.858, 468
313,33.968, -435
314,34.092, -197
315,34.201, 598
316,34.309, 1186
317,34.416, -558
318,34.525, -887
319,34.636, 440
320,34.746, -464
321,34.854, -5
322,34.964, 49
323,35.074, -732
324,35.184, -563
325,35.292, 219
326,35.4, -144
327,35.509, -197
328,35.618, -208
329,35.728, -36
330,35.838, 166
331,35.948, -164
332,36.057, -400
333,36.167, 424
334,36.275, -385
335,36.386, 503
336,36.494, -38
337,36.601, -332
338,36.711, 684
339,36.817, -285
340,36.926, -352
341,37.032, -250
342,37.14, -81
343,37.248, 651
344,37.358, 221
345,37.468, -603
346,37.579, 453
347,37.687, -479
348,37.795, 572
349,37.904, -603
350,38.013, 34
351,38.122, 98
352,38.229, 523
353,38.338, -239
354,38.446, 179
355,38.552, 554
356,38.661, 574
357,38.768, 138
358,38.875, -138
359,38.983, -1143
360,39.091, 688
361,39.198, 268
362,39.307, 625
363,39.416, 5
364,39.523, -849
365,39.632, 331
366,39.74, -499
367,39.847, -67
368,39.956, 74
369,40.065, 43
370,40.177, -352
371,40.285, 517
372,40.395, -688
373,40.505, -124
374,40.611, -157
375,40.719, -296
376,40.828, -916
377,40.934, 612
378,41.043, -362
379,41.15, -623
380,41.258, -118
381,41.368, 863
382,41.477, -1041
383,41.585, -270
384,41.694, 730
385,41.801, -450
386,41.91, 1550
387,42.017, 241
388,42.125, -204
389,42.234, 755
390,42.34, -164
391,42.451, 1305
392,42.557, 594
393,42.666, -1325
394,42.773, 215
395,42.881, -158
396,42.989, -274
397,43.097, -140
398,43.204, 1625
399,43.313, 523
400,43.422, -305
401,43.531, -948
402,43.64, -667
403,43.749, 832
404,43.857, 517
405,43.964, 697
406,44.072, -523
407,44.181, -179
408,44.291, -830
409,44.398, 1
410,44.505, 215
411,44.613, 85
412,44.719, -1
413,44.827, 805
414,44.936, 105
415,45.046, -413
416,45.156, -142
417,45.264, 21
418,45.373, -1008
419,45.482, -1111
420,45.589, 805
421,45.697, 860
422,45.807, 136
423,45.915, -255
424,46.023, -506
425,46.131, -320
426,46.241, -173
427,46.35, -356
428,46.457, 982
429,46.566, -116
430,46.675, -1050
431,46.783, 1543
432,46.89, -805
433,46.997, -543
434,47.105, -872
435,47.214, -755
436,47.323, -314
437,47.432, -717
438,47.538, -823
439,47.647, -764
440,47.754, -594
441,47.861, -146
442,47.971, -254
443,48.081, -8
444,48.188, 968
445,48.298, 927
446,48.406, -171
447,48.513, -171
448,48.621, 1374
449,48.729, -803
450,48.838, 896
451,48.947, -23
452,49.054, -1017
453,49.165, 710
454,49.274, 876
455,49.382, 1513
456,49.49, 748
457,49.599, -190
458,49.707, 664
459,49.814, 354
460,49.921, 669
461,50.028, 3
462,50.136, 653
463,50.245, 276
464,50.357, -1098
465,50.466, -241
466,50.575, -517
467,50.682, 647
468,50.791, -5
469,50.901, -294
470,51.009, -204
471,51.116, -10
472,51.224, -14
473,51.333, 1290
474,51.439, -1089
475,51.547, -1001
476,51.656, -583
477,51.765, 581
478,51.872, -321
479,51.98, -157
480,52.088, 39
481,52.196, -38
482,52.304, -197
483,52.412, 470
484,52.52, 1052
485,52.628, -120
486,52.736, 186
487,52.843, -30
488,52.95, -303
489,53.056, -812
490,53.163, -752
491,53.271, 960
492,53.379, -276
493,53.488, 1501
494,53.597, -580
495,53.704, -155
496,53.814, -153
497,53.922, -761
498,54.031, 27
499,54.139, -977
500,54.245, -400
501,54.354, -642
502,54.464, -136
503,54.573, -338
504,54.681, 190
505,54.791, -224
506,54.899, -803
507,55.006, -158
508,55.114, -155
509,55.223, 1140
510,55.331, -210
511,55.441, 268
512,55.55, 437
513,55.657, -320
514,55.766, -94
515,55.873, -263
516,55.982, -118
517,56.089, 140
518,56.198, 660
519,56.307, 708
520,56.414, -175
521,56.521, 331
522,56.629, 369
523,56.737, 803
524,56.844, -118
525,56.953, 1187
526,57.062, 385
527,57.169, 488
528,57.276, 882
529,57.383, 585
530,57.492, 340
531,57.601, 318
532,57.711, 581
533,57.819, -411
534,57.927, -1233
535,58.036, 697
536,58.146, 753
537,58.255, -376
538,58.364, 805
539,58.473, 30
540,58.578, 232
541,58.687, 1134
542,58.795, 561
543,58.902, 89
544,59.009, 47
545,59.117, -239
546,59.226, 719
547,59.333, 554
548,59.438, -237
549,59.548, -215
550,59.655, -265
551,59.762, 144
552,59.871, 142
553,59.979, 219
554,60.086, 371
555,60.194, 662
556,60.303, -8
557,60.409, 211
558,60.518, 244
559,60.628, -314
560,60.737, -232
561,60.847, -356
562,60.955, 938
563,61.063, -202
