i,Tiempo,V error
1,0.0, -16
2,0.105, 16
3,0.216, 49
4,0.325, -15
5,0.432, 16
6,0.541, 15
7,0.65, -31
8,0.757, -64
9,0.865, 16
10,0.976, -64
11,1.086, -16
12,1.301, 84
13,1.41, 280
14,1.518, -1219
15,1.625, 960
16,1.734, 329
17,1.842, -867
18,1.952, 451
19,2.059, -1217
20,2.166, -80
21,2.271, 111
22,2.38, 309
23,2.488, -122
24,2.594, -1354
25,2.702, 127
26,2.81, 618
27,2.917, -371
28,3.028, 878
29,3.137, -113
30,3.245, 395
31,3.354, -323
32,3.46, 202
33,3.567, -63
34,3.676, 58
35,3.785, -1312
36,3.892, 499
37,4.001, -508
38,4.109, -684
39,4.217, 129
40,4.324, -387
41,4.431, 951
42,4.539, -147
43,4.647, 633
44,4.755, -103
45,4.865, -27
46,4.972, 210
47,5.079, -105
48,5.186, 285
49,5.294, -265
50,5.403, -466
51,5.513, -160
52,5.62, 243
53,5.729, -248
54,5.837, -461
55,5.945, 1629
56,6.053, -541
57,6.163, -442
58,6.272, -230
59,6.381, 94
60,6.489, -424
61,6.596, 285
62,6.706, -358
63,6.814, -896
64,6.923, -653
65,7.029, 1127
66,7.139, 565
67,7.247, 858
68,7.356, -439
69,7.464, 1728
70,7.571, -898
71,7.68, -537
72,7.787, -526
73,7.896, -856
74,8.003, 713
75,8.112, -261
76,8.221, -175
77,8.329, -169
78,8.436, 699
79,8.545, 1263
80,8.653, 964
81,8.762, -1034
82,8.871, 973
83,8.979, -380
84,9.088, -67
85,9.198, 918
86,9.308, 678
87,9.417, 959
88,9.523, 796
89,9.63, 451
90,9.739, 693
91,9.846, 680
92,9.956, -439
93,10.065, 287
94,10.172, 325
95,10.279, -387
96,10.388, -351
97,10.495, 719
98,10.605, 32
99,10.714, -175
100,10.822, 252
101,10.931, -594
102,11.041, 1074
103,11.149, 1458
104,11.256, 1294
105,11.366, -83
106,11.473, 147
107,11.581, -270
108,11.689, 801
109,11.798, -656
110,11.906, 777
111,12.014, 640
112,12.122, -1209
113,12.231, -1072
114,12.341, 14
115,12.449, -175
116,12.556, -521
117,12.665, 413
118,12.774, -1308
119,12.884, -235
120,12.992, -402
121,13.1, 781
122,13.208, 808
123,13.315, -1550
124,13.424, -168
125,13.533, 49
126,13.642, -671
127,13.751, -420
128,13.86, 486
129,13.968, -550
130,14.076, -918
131,14.183, 384
132,14.29, 634
133,14.399, 65
134,14.506, -627
135,14.612, -257
136,14.72, -719
137,14.829, 129
138,14.937, 602
139,15.046, -116
140,15.154, -565
141,15.261, 775
142,15.368, -114
143,15.477, -219
144,15.585, 503
145,15.695, -559
146,15.803, -600
147,15.915, -246
148,16.021, 948
149,16.128, 807
150,16.237, -147
151,16.346, -179
152,16.456, -448
153,16.563, -316
154,16.673, 30
155,16.781, -338
156,16.889, -341
157,16.997, -109
158,17.106, -1548
159,17.217, 547
160,17.326, -378
161,17.434, 259
162,17.542, 664
163,17.647, -102
164,17.758, 298
165,17.865, -380
166,17.973, -1272
167,18.083, -294
168,18.191, 173
169,18.298, -138
170,18.405, 1222
171,18.512, 534
172,18.62, -243
173,18.728, 501
174,18.833, 155
175,18.941, -228
176,19.051, 801
177,19.159, 72
178,19.269, -175
179,19.377, -384
180,19.486, -213
181,19.594, 622
182,19.701, 501
183,19.808, -155
184,19.916, 1043
185,20.025, -14
186,20.134, -70
187,20.244, -206
188,20.352, -609
189,20.461, 596
190,20.568, 741
191,20.677, 41
192,20.789, -211
193,20.897, -45
194,21.006, 503
195,21.114, -211
196,21.22, -693
197,21.328, 299
198,21.436, -717
199,21.542, -389
200,21.649, -435
201,21.758, -70
202,21.867, -409
203,21.974, -323
204,22.081, -277
205,22.189, -374
206,22.296, -493
207,22.406, 695
208,22.515, -292
209,22.622, -554
210,22.73, -770
211,22.839, -78
212,22.946, -100
213,23.055, 49
214,23.162, 168
215,23.271, 1043
216,23.379, -387
217,23.488, 689
218,23.597, -25
219,23.704, 283
220,23.811, -199
221,23.92, -415
222,24.028, -118
223,24.135, -499
224,24.244, -1241
225,24.352, -345
226,24.462, -72
227,24.57, -334
228,24.68, -28
229,24.787, 818
230,24.896, -193
231,25.003, 175
232,25.111, 488
233,25.219, 177
234,25.328, 144
235,25.435, -1328
236,25.544, 673
237,25.654, 1030
238,25.762, 602
239,25.871, 982
240,25.98, -78
241,26.088, -124
242,26.196, 845
243,26.305, -435
244,26.414, -481
245,26.524, -623
246,26.631, 277
247,26.74, -193
248,26.849, -307
249,26.958, 1068
250,27.068, -173
251,27.175, 279
252,27.281, -16
253,27.391, -543
254,27.5, -352
255,27.608, -385
256,27.716, 596
257,27.826, 58
258,27.936, -563
259,28.042, -484
260,28.149, -770
261,28.256, 41
262,28.363, -1325
263,28.472, -499
264,28.578, -927
265,28.685, -243
266,28.794, -164
267,28.903, 268
268,29.008, 935
269,29.115, 87
270,29.223, -206
271,29.332, -816
272,29.44, -440
273,29.547, -124
274,29.658, 47
275,29.765, -459
276,29.873, -512
277,29.981, -437
278,30.089, 951
279,30.199, -14
280,30.309, -270
281,30.416, -402
282,30.527, 164
283,30.632, 721
284,30.741, 684
285,30.85, -373
286,30.957, 790
287,31.066, 327
288,31.175, -1369
289,31.282, -367
290,31.392, -453
291,31.502, -512
292,31.61, -667
293,31.717, -739
294,31.827, -1506
295,31.937, -580
296,32.048, 611
297,32.154, -60
298,32.263, 821
299,32.371, -217
300,32.479, -1436
301,32.587, -466
302,32.693, -435
303,32.8, -12
304,32.908, 78
305,33.017, 587
306,33.125, 1621
307,33.235, 510
308,33.343, 277
309,33.451, 211
310,33.56, 1213
311,33.667, -799
312,33.776, -243
313,33.886, -211
314,33.996, 616
315,34.104, 603
316,34.212, -274
317,34.319, -340
318,34.428, 1674
319,34.536, -629
320,34.644, 638
321,34.751, -1462
322,34.859, 869
323,34.967, -1420
324,35.075, -1068
325,35.184, -10
326,35.292, -695
327,35.401, -691
328,35.509, -21
329,35.617, -6
330,35.724, 398
331,35.832, -327
332,35.941, 666
333,36.048, 1411
334,36.156, 726
335,36.264, 210
336,36.374, -334
337,36.482, 519
338,36.589, 493
339,36.698, 836
340,36.806, -413
341,36.913, 757
342,37.023, 345
343,37.13, -594
344,37.241, -193
345,37.348, 664
346,37.458, 1588
347,37.566, 413
348,37.675, -417
349,37.784, 808
350,37.894, 552
351,38.003, 927
352,38.111, -561
353,38.222, -111
354,38.329, 140
355,38.438, 548
356,38.545, 144
357,38.654, 1123
358,38.763, -221
359,38.872, 796
360,38.981, -191
361,39.092, -307
362,39.201, -252
363,39.308, -243
364,39.417, -107
365,39.525, 8
366,39.636, 345
367,39.742, 224
368,39.852, -916
369,39.962, -320
370,40.071, 1
371,40.18, -796
372,40.288, 158
373,40.396, -885
374,40.504, -274
375,40.613, 96
376,40.725, 1215
377,40.835, 964
378,40.942, -622
379,41.051, 671
380,41.158, -157
381,41.266, -85
382,41.375, -261
383,41.485, -389
384,41.593, -113
385,41.701, -849
386,41.81, 312
387,41.917, -1391
388,42.027, 241
389,42.136, -305
390,42.244, 116
391,42.353, 968
392,42.461, 885
393,42.571, -431
394,42.677, 737
395,42.785, -243
396,42.893, 684
397,43.0, -468
398,43.11, 19
399,43.219, -587
400,43.327, -21
401,43.436, 1361
402,43.543, 733
403,43.65, 598
404,43.758, 596
405,43.867, 662
406,43.973, -565
407,44.084, -598
408,44.194, 889
409,44.302, -356
410,44.411, 331
411,44.518, 620
412,44.625, 578
413,44.734, 81
414,44.843, 32
415,44.954, 1354
416,45.063, 653
417,45.171, -450
418,45.279, -493
419,45.387, 1319
420,45.494, 105
421,45.602, -1195
422,45.71, 1098
423,45.816, 625
424,45.924, -417
425,46.032, -89
426,46.138, -927
427,46.246, 922
428,46.352, -442
429,46.459, 647
430,46.568, -415
431,46.678, 257
432,46.786, -499
433,46.894, 228
434,47.003, -341
435,47.112, 598
436,47.22, -74
437,47.33, 569
438,47.441, -276
439,47.55, 915
440,47.658, -122
441,47.767, -246
442,47.874, -94
443,47.982, -481
444,48.09, 1122
445,48.199, 565
446,48.307, -140
447,48.415, 151
448,48.525, 263
449,48.632, -190
450,48.74, -318
451,48.847, -287
452,48.956, -475
453,49.064, 565
454,49.171, -1321
455,49.28, 393
456,49.387, 239
457,49.496, 74
458,49.603, -153
459,49.712, -1083
460,49.82, 237
461,49.927, 622
462,50.035, 2134
463,50.144, 78
464,50.251, -845
465,50.359, 349
466,50.468, 175
467,50.577, -149
468,50.684, -369
469,50.793, -142
470,50.9, -735
471,51.01, 796
472,51.117, -373
473,51.227, 296
474,51.336, 616
475,51.445, 52
476,51.555, -96
477,51.665, -32
478,51.772, -47
479,51.878, -320
480,51.985, 1154
481,52.095, 710
482,52.203, -316
483,52.311, -437
484,52.42, 81
485,52.527, -239
486,52.636, -655
487,52.746, -367
488,52.854, -30
489,52.962, 343
490,53.069, -36
491,53.179, -356
492,53.287, 1645
493,53.398, -217
494,53.506, 114
495,53.612, -118
496,53.721, -592
497,53.83, -193
498,53.938, -466
499,54.046, -367
500,54.154, 193
501,54.263, 332
502,54.371, -869
503,54.48, -124
504,54.588, -133
505,54.696, -819
506,54.803, -428
507,54.912, -525
508,55.022, -1052
509,55.128, 702
510,55.239, 155
511,55.348, 781
512,55.454, -98
513,55.564, 1314
514,55.675, 1096
515,55.782, -146
516,55.891, 759
517,55.999, -755
518,56.108, 210
519,56.216, -576
520,56.323, -616
521,56.432, -74
522,56.539, -1515
523,56.647, -266
524,56.754, 439
525,56.862, 792
526,56.97, 261
527,57.078, -255
528,57.186, 102
529,57.293, -581
530,57.402, 1281
531,57.509, -158
532,57.618, -39
533,57.726, -940
534,57.833, -371
535,57.941, -733
536,58.049, -211
537,58.158, -129
538,58.268, -473
539,58.375, 80
540,58.482, -352
541,58.59, 437
542,58.697, -142
543,58.805, 72
544,58.913, -730
545,59.022, -565
546,59.131, 561
547,59.239, -131
548,59.348, -926
549,59.456, -567
550,59.565, -1235
551,59.674, -596
552,59.781, 124
553,59.891, -285
554,60.0, -915
555,60.108, 1198
556,60.216, -135
557,60.322, -578
558,60.432, 867
559,60.542, 561
560,60.65, -155
561,60.758, -417
562,60.867, -277
563,60.977, -270
564,61.086, -341
