i,Tiempo,V error
1,0.0, 35
2,0.106, 59
3,0.215, -24
4,0.323, 13
5,0.434, -59
6,0.544, 0
7,0.652, 11
8,0.758, 59
9,0.866, 22
10,0.973, 11
11,1.081, -11
12,1.296, -135
13,1.406, 298
14,1.515, -14
15,1.62, 496
16,1.73, -1261
17,1.838, 325
18,1.948, 345
19,2.055, -885
20,2.165, -660
21,2.274, -821
22,2.383, 689
23,2.492, -440
24,2.6, 900
25,2.71, -1248
26,2.817, 664
27,2.926, -814
28,3.034, 545
29,3.143, -567
30,3.251, -1233
31,3.364, -186
32,3.471, 246
33,3.582, -34
34,3.692, -528
35,3.801, 395
36,3.91, 385
37,4.02, 730
38,4.132, -43
39,4.242, 656
40,4.351, -133
41,4.461, 345
42,4.569, -541
43,4.678, -21
44,4.786, -72
45,4.896, -160
46,5.003, -272
47,5.113, 587
48,5.219, 583
49,5.329, 43
50,5.438, -230
51,5.547, -1061
52,5.653, 915
53,5.764, 594
54,5.875, 786
55,5.985, 569
56,6.095, -541
57,6.205, -305
58,6.315, 347
59,6.424, -239
60,6.534, -526
61,6.645, 111
62,6.753, 797
63,6.865, 636
64,6.977, 363
65,7.086, -219
66,7.195, -792
67,7.305, -457
68,7.416, 774
69,7.524, 1376
70,7.633, 85
71,7.744, 964
72,7.855, -497
73,7.966, -111
74,8.074, 182
75,8.185, 80
76,8.296, 107
77,8.404, 1429
78,8.514, -428
79,8.623, 856
80,8.732, -294
81,8.839, -69
82,8.947, 418
83,9.056, -74
84,9.166, -332
85,9.275, 722
86,9.383, 30
87,9.493, -530
88,9.603, 832
89,9.712, -796
90,9.819, 534
91,9.93, 314
92,10.04, 61
93,10.151, 195
94,10.261, -1074
95,10.369, -65
96,10.478, -371
97,10.587, -700
98,10.699, -201
99,10.808, 91
100,10.917, 689
101,11.027, 442
102,11.135, 1103
103,11.246, 592
104,11.356, 1400
105,11.465, -1081
106,11.576, 552
107,11.684, 222
108,11.795, 186
109,11.902, 794
110,12.012, 69
111,12.12, -113
112,12.229, -241
113,12.337, 1356
114,12.446, 184
115,12.554, -658
116,12.663, 1587
117,12.774, -356
118,12.883, 655
119,12.993, 510
120,13.099, 748
121,13.208, 162
122,13.317, 704
123,13.426, -160
124,13.534, -124
125,13.644, -125
126,13.753, 677
127,13.863, -168
128,13.97, -166
129,14.079, 700
130,14.19, -1314
131,14.299, 400
132,14.408, -1004
133,14.517, 671
134,14.625, 318
135,14.735, -552
136,14.843, 70
137,14.95, 481
138,15.058, 1026
139,15.167, -19
140,15.278, 248
141,15.388, -109
142,15.496, -244
143,15.603, -32
144,15.713, -45
145,15.821, -869
146,15.932, 770
147,16.043, -162
148,16.151, 1387
149,16.261, -144
150,16.371, 711
151,16.48, -327
152,16.589, -1118
153,16.7, 292
154,16.807, 1389
155,16.915, -561
156,17.023, 622
157,17.132, 671
158,17.239, 378
159,17.349, 116
160,17.459, -1059
161,17.567, -482
162,17.675, 783
163,17.782, -384
164,17.892, -327
165,18.002, 38
166,18.113, -741
167,18.221, -21
168,18.33, -334
169,18.438, 583
170,18.549, -140
171,18.657, 871
172,18.765, -1090
173,18.872, -265
174,18.981, 739
175,19.09, 190
176,19.201, 700
177,19.31, -340
178,19.419, 726
179,19.531, -341
180,19.64, -580
181,19.75, -902
182,19.86, -158
183,19.969, -222
184,20.081, 155
185,20.189, 482
186,20.297, -406
187,20.405, 790
188,20.514, 224
189,20.623, -268
190,20.731, 781
191,20.839, 211
192,20.946, -318
193,21.052, -570
194,21.162, -171
195,21.271, -202
196,21.378, 332
197,21.488, -158
198,21.596, 735
199,21.703, 191
200,21.81, -81
201,21.92, -266
202,22.029, 1173
203,22.137, -177
204,22.247, 741
205,22.355, -248
206,22.464, 677
207,22.573, -309
208,22.683, 211
209,22.792, -109
210,22.901, -834
211,23.008, 1001
212,23.116, -519
213,23.223, 190
214,23.331, 87
215,23.438, 63
216,23.547, 982
217,23.655, 634
218,23.763, 360
219,23.872, -475
220,23.98, -265
221,24.088, -1010
222,24.195, -341
223,24.303, 396
224,24.413, 807
225,24.521, -1035
226,24.63, 21
227,24.737, 763
228,24.844, -226
229,24.953, -124
230,25.062, -1
231,25.17, -450
232,25.278, -1596
233,25.387, -118
234,25.496, 1
235,25.604, -378
236,25.712, -558
237,25.82, -303
238,25.928, -30
239,26.035, 217
240,26.146, -633
241,26.253, 307
242,26.363, -288
243,26.472, 312
244,26.58, 623
245,26.686, 417
246,26.797, -67
247,26.906, -168
248,27.015, -338
249,27.123, 387
250,27.229, 157
251,27.337, 287
252,27.446, 341
253,27.552, -636
254,27.661, -385
255,27.767, -1067
256,27.875, -193
257,27.981, 413
258,28.091, 1004
259,28.199, -417
260,28.308, 373
261,28.418, 871
262,28.525, -448
263,28.633, -21
264,28.741, 1206
265,28.849, -514
266,28.955, 715
267,29.064, 706
268,29.173, -83
269,29.281, 539
270,29.388, -298
271,29.496, 281
272,29.607, -270
273,29.716, 413
274,29.826, -708
275,29.934, 314
276,30.042, 211
277,30.149, 534
278,30.257, -1114
279,30.366, 545
280,30.475, -235
281,30.584, 796
282,30.693, -1308
283,30.8, 746
284,30.906, -611
285,31.014, -109
286,31.122, 362
287,31.231, 281
288,31.339, -341
289,31.448, 550
290,31.558, -371
291,31.665, 114
292,31.772, -168
293,31.878, 129
294,31.987, 63
295,32.097, -1676
296,32.205, -233
297,32.315, 345
298,32.425, 1090
299,32.534, 704
300,32.644, -144
301,32.752, 1281
302,32.861, -217
303,32.97, -283
304,33.078, -61
305,33.187, 8
306,33.295, 574
307,33.404, -197
308,33.512, -356
309,33.621, -69
310,33.729, 651
311,33.837, 39
312,33.944, -210
313,34.053, -422
314,34.16, -69
315,34.268, -706
316,34.376, -92
317,34.484, -151
318,34.591, -103
319,34.698, 142
320,34.808, 799
321,34.916, 349
322,35.03, 623
323,35.139, 636
324,35.248, -356
325,35.358, -94
326,35.465, 863
327,35.575, 649
328,35.686, 341
329,35.798, 1704
330,35.906, -845
331,36.014, 111
332,36.123, 827
333,36.232, 323
334,36.343, -316
335,36.45, 829
336,36.559, -210
337,36.665, 796
338,36.776, -318
339,36.885, 578
340,36.994, 111
341,37.103, -418
342,37.211, 719
343,37.318, -179
344,37.425, -962
345,37.533, -1098
346,37.641, -816
347,37.752, -519
348,37.86, 160
349,37.969, -468
350,38.078, -263
351,38.186, -338
352,38.293, -318
353,38.4, 173
354,38.508, 594
355,38.616, 162
356,38.725, 14
357,38.834, 160
358,38.941, 506
359,39.05, 96
360,39.16, 228
361,39.268, -217
362,39.376, -1400
363,39.485, -384
364,39.592, -92
365,39.698, -545
366,39.808, -142
367,39.917, -210
368,40.027, -517
369,40.136, -470
370,40.245, -598
371,40.352, -420
372,40.458, -1213
373,40.566, 407
374,40.674, 1079
375,40.783, -1209
376,40.889, -175
377,40.997, 576
378,41.107, -1182
379,41.214, -959
380,41.322, 807
381,41.429, -634
382,41.536, -433
383,41.644, 237
384,41.755, -1468
385,41.862, 667
386,41.971, 391
387,42.078, -288
388,42.188, -309
389,42.297, -1389
390,42.406, -65
391,42.515, -439
392,42.622, 574
393,42.73, -36
394,42.84, 537
395,42.947, 180
396,43.057, 100
397,43.164, -193
398,43.272, 193
399,43.38, -739
400,43.487, 547
401,43.596, -477
402,43.703, 343
403,43.811, 391
404,43.918, 1107
405,44.026, 5
406,44.135, -878
407,44.243, -1184
408,44.354, 501
409,44.461, 887
410,44.569, -1609
411,44.677, 678
412,44.787, -111
413,44.896, -221
414,45.005, 591
415,45.115, -371
416,45.223, -266
417,45.33, 217
418,45.438, 96
419,45.546, 770
420,45.655, -1023
421,45.763, -127
422,45.873, 96
423,45.982, -164
424,46.09, -461
425,46.198, -384
426,46.307, -384
427,46.416, -435
428,46.526, -442
429,46.634, 334
430,46.742, 193
431,46.85, 545
432,46.958, 1138
433,47.064, 47
434,47.171, 783
435,47.28, -750
436,47.388, -1131
437,47.497, 1466
438,47.604, 1812
439,47.714, 973
440,47.823, -5
441,47.931, -202
442,48.04, -316
443,48.147, 576
444,48.256, 343
445,48.364, -206
446,48.473, 347
447,48.582, -457
448,48.691, -481
449,48.8, -197
450,48.906, 722
451,49.015, -111
452,49.124, 91
453,49.232, 482
454,49.34, 616
455,49.448, 966
456,49.558, 228
457,49.667, 786
458,49.776, 360
459,49.885, -70
460,49.995, -367
461,50.103, -471
462,50.214, 667
463,50.321, -426
464,50.43, 585
465,50.54, -1358
466,50.647, -490
467,50.754, -457
468,50.861, -268
469,50.97, -732
470,51.076, -158
471,51.185, -543
472,51.293, -1422
473,51.4, 660
474,51.507, -303
475,51.617, -347
476,51.725, 589
477,51.834, 58
478,51.943, 435
479,52.05, 230
480,52.161, 761
481,52.269, -338
482,52.376, -770
483,52.484, 622
484,52.592, 918
485,52.699, -669
486,52.808, -215
487,52.917, 631
488,53.025, -396
489,53.133, 536
490,53.241, 840
491,53.349, -142
492,53.455, -966
493,53.562, -197
494,53.67, -863
495,53.777, 591
496,53.885, -232
497,53.995, -759
498,54.102, -1219
499,54.211, 838
500,54.318, 539
501,54.428, -1233
502,54.534, -1451
503,54.642, -184
504,54.749, -363
505,54.859, 981
506,54.968, -217
507,55.075, 653
508,55.184, 602
509,55.291, -1103
510,55.399, -975
511,55.507, -367
512,55.615, -320
513,55.722, 807
514,55.831, 41
515,55.941, -376
516,56.049, -254
517,56.157, -391
518,56.265, -1041
519,56.374, -466
520,56.481, 752
521,56.588, -285
522,56.698, 737
523,56.808, -87
524,56.917, -612
525,57.025, 142
526,57.135, -415
527,57.245, 882
528,57.353, -3
529,57.461, -407
530,57.571, 171
531,57.681, -790
532,57.791, -215
533,57.897, -184
534,58.007, -120
535,58.115, 1521
536,58.225, 600
537,58.332, -250
538,58.439, -426
539,58.547, -118
540,58.657, -199
541,58.766, -325
542,58.874, 1475
543,58.983, 702
544,59.092, 63
545,59.201, -94
546,59.31, 1065
547,59.417, 312
548,59.525, -413
549,59.634, 349
550,59.743, 243
551,59.851, -164
552,59.957, -1394
553,60.065, -19
554,60.174, -455
555,60.283, -111
556,60.391, -486
557,60.5, -184
558,60.61, 81
559,60.719, -210
560,60.828, 219
561,60.935, -169
562,61.043, 636
