i,Tiempo,V error
1,0.0, -16
2,0.108, 0
3,0.216, 16
4,0.326, -16
5,0.434, -84
6,0.542, 33
7,0.651, -16
8,0.759, 0
9,0.869, 0
10,0.976, -66
11,1.083, -16
12,1.298, -359
13,1.406, 257
14,1.514, 195
15,1.621, -389
16,1.73, 669
17,1.837, 710
18,1.945, -563
19,2.053, -488
20,2.162, -508
21,2.27, -32
22,2.379, 102
23,2.488, 682
24,2.598, -98
25,2.705, 428
26,2.811, 695
27,2.92, 340
28,3.03, -446
29,3.137, 41
30,3.245, -45
31,3.354, 517
32,3.465, 750
33,3.575, -16
34,3.681, -446
35,3.79, 515
36,3.898, 512
37,4.006, -572
38,4.114, -149
39,4.221, -323
40,4.33, -243
41,4.437, -72
42,4.546, 19
43,4.653, -34
44,4.762, -666
45,4.868, -435
46,4.976, 431
47,5.083, -307
48,5.191, 614
49,5.299, 204
50,5.408, 50
51,5.516, -188
52,5.624, -58
53,5.73, -565
54,5.838, 120
55,5.945, 91
56,6.053, -146
57,6.161, 290
58,6.268, 301
59,6.376, -32
60,6.484, 91
61,6.593, 45
62,6.701, 27
63,6.809, -633
64,6.916, 78
65,7.025, 706
66,7.134, 770
67,7.243, 325
68,7.351, 188
69,7.459, 327
70,7.565, 19
71,7.674, 327
72,7.78, -389
73,7.888, -252
74,7.993, 92
75,8.103, -356
76,8.211, 697
77,8.319, 32
78,8.427, -87
79,8.536, 136
80,8.645, 274
81,8.753, -363
82,8.859, 277
83,8.966, 39
84,9.076, -27
85,9.185, 521
86,9.293, -422
87,9.401, -202
88,9.51, 111
89,9.619, 396
90,9.727, -272
91,9.834, 691
92,9.942, 63
93,10.049, -206
94,10.156, 122
95,10.262, 100
96,10.37, -732
97,10.478, -32
98,10.584, 829
99,10.692, -140
100,10.801, 774
101,10.909, -30
102,11.016, 486
103,11.127, 49
104,11.235, 43
105,11.342, 72
106,11.45, 614
107,11.558, -457
108,11.666, 475
109,11.777, -153
110,11.883, 318
111,11.991, 76
112,12.099, -614
113,12.206, 27
114,12.314, -647
115,12.423, -133
116,12.531, 193
117,12.64, -102
118,12.751, -102
119,12.857, -201
120,12.965, 113
121,13.073, 138
122,13.18, -109
123,13.288, -358
124,13.397, -373
125,13.505, 686
126,13.615, -501
127,13.723, -202
128,13.831, 662
129,13.939, 563
130,14.046, -343
131,14.156, -39
132,14.263, 402
133,14.373, 719
134,14.48, -127
135,14.59, 607
136,14.699, -625
137,14.807, -356
138,14.918, -72
139,15.026, 464
140,15.135, -1057
141,15.243, 655
142,15.352, -94
143,15.461, -85
144,15.57, 523
145,15.679, 213
146,15.787, -188
147,15.897, -378
148,16.006, -261
149,16.114, 30
150,16.223, -168
151,16.33, -21
152,16.44, 721
153,16.548, -766
154,16.655, -151
155,16.763, 365
156,16.869, -67
157,16.978, -151
158,17.086, -775
159,17.193, -283
160,17.304, 356
161,17.412, 219
162,17.521, -415
163,17.63, 153
164,17.739, -803
165,17.848, -444
166,17.957, 109
167,18.064, -307
168,18.171, -431
169,18.28, -415
170,18.389, 953
171,18.498, 680
172,18.606, 140
173,18.716, 118
174,18.827, -742
175,18.935, -457
176,19.045, 481
177,19.155, -74
178,19.265, -391
179,19.372, -292
180,19.483, 30
181,19.591, 651
182,19.699, 942
183,19.809, -113
184,19.919, -85
185,20.029, -232
186,20.137, -142
187,20.244, -325
188,20.351, -686
189,20.461, -54
190,20.568, 904
191,20.679, 149
192,20.788, 605
193,20.898, 340
194,21.005, -246
195,21.113, -583
196,21.22, -462
197,21.329, 252
198,21.437, -261
199,21.547, 78
200,21.653, 94
201,21.761, 645
202,21.869, 411
203,21.978, 270
204,22.086, -400
205,22.196, -506
206,22.302, -482
207,22.408, -109
208,22.516, 664
209,22.623, 92
210,22.731, 190
211,22.855, 76
212,22.963, 946
213,23.071, -739
214,23.179, -880
215,23.288, -504
216,23.396, -384
217,23.503, 177
218,23.613, 437
219,23.719, 409
220,23.828, 310
221,23.936, -28
222,24.045, 345
223,24.152, 120
224,24.26, 125
225,24.368, -620
226,24.476, -532
227,24.586, -721
228,24.692, 74
229,24.802, -373
230,24.911, -486
231,25.02, 830
232,25.13, -589
233,25.237, 609
234,25.345, -155
235,25.455, -142
236,25.563, 241
237,25.673, -363
238,25.78, -591
239,25.889, -277
240,25.998, -173
241,26.106, -658
242,26.212, -197
243,26.32, 171
244,26.428, -250
245,26.537, 153
246,26.647, 614
247,26.755, -50
248,26.863, -193
249,26.972, -442
250,27.08, -191
251,27.189, 235
252,27.297, -662
253,27.405, -435
254,27.512, 808
255,27.62, -644
256,27.729, 490
257,27.835, -254
258,27.942, -285
259,28.051, 556
260,28.162, 585
261,28.268, 307
262,28.376, 177
263,28.485, -867
264,28.594, 495
265,28.701, 614
266,28.809, -627
267,28.917, -32
268,29.026, 512
269,29.136, 759
270,29.246, -201
271,29.352, -164
272,29.46, -316
273,29.568, 534
274,29.676, -263
275,29.786, 504
276,29.895, -484
277,30.003, -171
278,30.112, -645
279,30.219, -495
280,30.328, 567
281,30.436, 534
282,30.545, -208
283,30.654, -252
284,30.764, 169
285,30.874, 162
286,30.981, -450
287,31.091, 197
288,31.2, -554
289,31.307, 50
290,31.416, 25
291,31.522, -680
292,31.629, 17
293,31.738, 411
294,31.846, -504
295,31.954, 329
296,32.064, -211
297,32.173, -272
298,32.282, 318
299,32.39, 45
300,32.497, -186
301,32.608, 109
302,32.715, -819
303,32.821, -376
304,32.929, 41
305,33.037, -633
306,33.144, -17
307,33.252, -146
308,33.358, 144
309,33.469, -492
310,33.576, -387
311,33.683, 202
312,33.792, 338
313,33.9, -548
314,34.007, -530
315,34.116, 570
316,34.221, 371
317,34.329, -288
318,34.437, 85
319,34.545, 724
320,34.656, 100
321,34.763, -766
322,34.872, -56
323,34.98, -105
324,35.088, -298
325,35.197, 684
326,35.305, 706
327,35.414, -94
328,35.523, -343
329,35.632, 252
330,35.74, -675
331,35.849, -10
332,35.958, -74
333,36.066, -28
334,36.176, 206
335,36.285, -607
336,36.393, -684
337,36.5, 301
338,36.607, 510
339,36.715, -246
340,36.825, 517
341,36.931, -444
342,37.04, 298
343,37.148, 80
344,37.258, -265
345,37.367, 358
346,37.476, -592
347,37.585, -332
348,37.694, -243
349,37.804, -409
350,37.91, -47
351,38.019, -166
352,38.128, 677
353,38.237, 6
354,38.345, 371
355,38.453, -272
356,38.562, -127
357,38.668, -481
358,38.777, -133
359,38.884, 210
360,38.992, -565
361,39.101, 138
362,39.209, -122
363,39.318, 653
364,39.426, 603
365,39.534, -92
366,39.641, -270
367,39.749, 515
368,39.858, -254
369,39.967, 600
370,40.074, -451
371,40.183, 58
372,40.291, 715
373,40.399, -444
374,40.507, -61
375,40.615, -398
376,40.723, 450
377,40.83, -83
378,40.937, -591
379,41.047, 190
380,41.157, 215
381,41.264, 933
382,41.372, -418
383,41.48, -114
384,41.588, -611
385,41.697, -14
386,41.805, -146
387,41.913, 697
388,42.02, 821
389,42.13, -179
390,42.239, -243
391,42.348, 415
392,42.457, -499
393,42.564, -138
394,42.672, -252
395,42.781, 594
396,42.888, -261
397,42.996, -446
398,43.102, -157
399,43.211, -799
400,43.318, 107
401,43.428, -786
402,43.535, 664
403,43.644, -252
404,43.753, 340
405,43.861, 135
406,43.969, 717
407,44.078, 1173
408,44.185, 41
409,44.295, -180
410,44.403, 63
411,44.511, -254
412,44.617, 173
413,44.725, 219
414,44.833, 171
415,44.944, 894
416,45.053, 74
417,45.161, 666
418,45.27, 517
419,45.378, 583
420,45.485, 818
421,45.594, 142
422,45.703, -863
423,45.811, -512
424,45.918, 514
425,46.025, -450
426,46.134, 552
427,46.242, 16
428,46.35, 785
429,46.458, 506
430,46.566, -612
431,46.673, -76
432,46.782, 739
433,46.891, -631
434,46.997, 65
435,47.107, 893
436,47.216, -50
437,47.322, 274
438,47.432, 722
439,47.541, 589
440,47.649, -911
441,47.755, -272
442,47.863, -631
443,47.973, 374
444,48.081, 270
445,48.191, 565
446,48.3, 325
447,48.409, 490
448,48.516, 431
449,48.624, -352
450,48.733, 151
451,48.84, -426
452,48.949, 790
453,49.057, -530
454,49.166, 490
455,49.274, -323
456,49.382, -492
457,49.491, 47
458,49.598, -347
459,49.707, -501
460,49.815, 100
461,49.923, -6
462,50.029, 552
463,50.138, 8
464,50.245, 779
465,50.354, 411
466,50.461, -122
467,50.568, -125
468,50.676, 968
469,50.784, 688
470,50.892, -8
471,51.0, 583
472,51.109, 700
473,51.217, -81
474,51.326, 1017
475,51.435, 578
476,51.546, 127
477,51.652, -358
478,51.763, -122
479,51.87, -177
480,51.98, 1059
481,52.089, -486
482,52.198, -204
483,52.306, -757
484,52.415, -149
485,52.525, 351
486,52.633, -442
487,52.742, 109
488,52.851, -27
489,52.959, 239
490,53.08, -327
491,53.189, -492
492,53.296, -534
493,53.406, 517
494,53.514, 523
495,53.625, 124
496,53.735, 347
497,53.844, -433
498,53.954, 618
499,54.064, 664
500,54.172, -65
501,54.28, 418
502,54.385, 1015
503,54.493, -307
504,54.602, 484
505,54.71, -697
506,54.817, -23
507,54.925, 1
508,55.033, -136
509,55.141, -526
510,55.248, -138
511,55.354, -349
512,55.464, 243
513,55.571, 451
514,55.679, -598
515,55.787, -371
516,55.897, 616
517,56.005, -569
518,56.116, -122
519,56.223, -158
520,56.33, 204
521,56.439, 16
522,56.546, -462
523,56.653, -204
524,56.761, 345
525,56.87, 530
526,56.978, 904
527,57.085, -186
528,57.191, 50
529,57.301, -437
530,57.41, -168
531,57.517, -1
532,57.626, 607
533,57.735, -221
534,57.844, -8
535,57.953, -532
536,58.061, -827
537,58.168, 74
538,58.275, -389
539,58.385, -129
540,58.493, -461
541,58.601, -224
542,58.71, -470
543,58.817, -585
544,58.924, -550
545,59.033, 393
546,59.14, -431
547,59.248, 81
548,59.357, -261
549,59.465, 248
550,59.572, -775
551,59.681, -244
552,59.791, -195
553,59.899, -17
554,60.008, -580
555,60.116, -915
556,60.225, -146
557,60.335, 695
558,60.442, 125
559,60.547, -14
560,60.655, -387
561,60.764, 836
562,60.872, -415
563,60.983, -715
564,61.09, -442
