i,Tiempo,V error
1,0.0, 26
2,0.108, 0
3,0.214, -26
4,0.322, 92
5,0.431, 66
6,0.54, 0
7,0.648, -13
8,0.756, -51
9,0.864, 0
10,0.972, 26
11,1.081, 26
12,1.3, 198
13,1.408, -678
14,1.517, -211
15,1.626, 30
16,1.738, 268
17,1.859, 616
18,1.984, 21
19,2.091, 671
20,2.201, 539
21,2.308, -792
22,2.416, 129
23,2.523, 671
24,2.632, -124
25,2.742, 63
26,2.848, 669
27,2.956, 695
28,3.065, 25
29,3.172, -261
30,3.278, -144
31,3.386, 559
32,3.493, -67
33,3.602, 1012
34,3.711, -100
35,3.818, -488
36,3.928, 50
37,4.035, 87
38,4.143, 519
39,4.25, -517
40,4.357, -65
41,4.465, -684
42,4.571, -667
43,4.678, 537
44,4.787, -169
45,4.895, -611
46,5.002, 144
47,5.109, -576
48,5.218, 497
49,5.326, 539
50,5.434, 609
51,5.542, 580
52,5.65, 589
53,5.759, 440
54,5.866, 536
55,5.973, -283
56,6.081, -444
57,6.187, 948
58,6.296, -36
59,6.406, 213
60,6.514, 459
61,6.621, -547
62,6.728, -706
63,6.835, -550
64,6.944, -168
65,7.052, 43
66,7.159, 1142
67,7.267, 552
68,7.375, 111
69,7.483, -72
70,7.59, 191
71,7.699, -125
72,7.805, 215
73,7.911, -149
74,8.02, -400
75,8.128, 581
76,8.236, 1072
77,8.344, -158
78,8.452, 700
79,8.561, 532
80,8.67, 402
81,8.775, 691
82,8.885, 840
83,8.994, 63
84,9.098, -363
85,9.209, 96
86,9.317, -14
87,9.426, 109
88,9.535, -188
89,9.641, -614
90,9.749, 270
91,9.857, -655
92,9.965, 512
93,10.072, 155
94,10.182, -409
95,10.289, 1
96,10.399, 65
97,10.507, 905
98,10.615, -294
99,10.723, -468
100,10.83, -135
101,10.937, -662
102,11.045, 786
103,11.153, 512
104,11.261, 277
105,11.368, -331
106,11.476, 609
107,11.583, -636
108,11.69, -426
109,11.797, -252
110,11.905, -140
111,12.016, 576
112,12.124, -733
113,12.231, 244
114,12.339, -179
115,12.447, 265
116,12.554, 349
117,12.662, -391
118,12.771, -241
119,12.878, 177
120,12.99, -398
121,13.097, -83
122,13.205, -173
123,13.311, 406
124,13.421, -34
125,13.528, 492
126,13.637, 539
127,13.745, 144
128,13.857, 78
129,13.963, 426
130,14.07, -552
131,14.181, -287
132,14.29, -208
133,14.399, 144
134,14.509, -439
135,14.618, 219
136,14.726, -213
137,14.832, 338
138,14.939, -501
139,15.046, 340
140,15.155, 155
141,15.265, -268
142,15.371, 1070
143,15.48, -111
144,15.589, -191
145,15.697, -651
146,15.806, -243
147,15.913, -341
148,16.023, -144
149,16.131, -272
150,16.238, -164
151,16.346, -52
152,16.455, -387
153,16.563, -340
154,16.668, -301
155,16.776, -715
156,16.884, -210
157,16.991, -270
158,17.096, -30
159,17.206, 292
160,17.313, -41
161,17.421, -151
162,17.527, -556
163,17.636, 631
164,17.745, 124
165,17.856, -54
166,17.964, -288
167,18.073, 737
168,18.182, -107
169,18.29, 662
170,18.396, -58
171,18.503, -277
172,18.611, -459
173,18.719, 711
174,18.828, 215
175,18.934, 140
176,19.042, 497
177,19.152, 338
178,19.261, -746
179,19.37, 1013
180,19.48, 426
181,19.588, -259
182,19.696, -27
183,19.802, -182
184,19.91, 47
185,20.016, -702
186,20.126, -307
187,20.235, -618
188,20.344, -151
189,20.453, -303
190,20.561, -442
191,20.668, -878
192,20.776, 849
193,20.883, 255
194,20.992, 572
195,21.1, -843
196,21.207, -363
197,21.316, -25
198,21.423, 261
199,21.532, 30
200,21.64, -164
201,21.746, 153
202,21.857, -501
203,21.964, -462
204,22.071, 680
205,22.18, 201
206,22.288, -455
207,22.396, 149
208,22.505, -338
209,22.615, 1041
210,22.723, 8
211,22.832, -607
212,22.94, 232
213,23.05, 523
214,23.158, -250
215,23.265, -190
216,23.374, -301
217,23.482, -552
218,23.591, 1034
219,23.699, 83
220,23.808, -168
221,23.915, 316
222,24.023, -733
223,24.13, 689
224,24.237, -587
225,24.345, -451
226,24.453, -224
227,24.559, 334
228,24.668, -166
229,24.777, 23
230,24.885, 38
231,24.994, -193
232,25.101, -477
233,25.211, 138
234,25.319, -34
235,25.43, -543
236,25.539, 69
237,25.646, -47
238,25.756, 54
239,25.862, 519
240,25.969, -32
241,26.077, -318
242,26.184, 125
243,26.293, 486
244,26.401, 135
245,26.509, -233
246,26.615, -541
247,26.726, 1123
248,26.833, -515
249,26.943, -166
250,27.052, 17
251,27.158, -100
252,27.268, 371
253,27.377, -424
254,27.486, -6
255,27.592, 243
256,27.702, -327
257,27.81, 157
258,27.919, 340
259,28.029, 155
260,28.136, -301
261,28.244, 384
262,28.353, -193
263,28.459, -244
264,28.567, -495
265,28.674, -384
266,28.782, -277
267,28.889, -944
268,28.997, 951
269,29.105, 684
270,29.213, 387
271,29.321, -294
272,29.427, 142
273,29.537, 517
274,29.646, -12
275,29.752, 312
276,29.861, 484
277,29.968, 623
278,30.077, -83
279,30.186, -422
280,30.293, 927
281,30.402, 406
282,30.508, -85
283,30.615, -102
284,30.725, -420
285,30.832, -464
286,30.94, 645
287,31.052, -72
288,31.159, -702
289,31.268, -349
290,31.378, -856
291,31.487, 49
292,31.594, 385
293,31.702, -272
294,31.812, -268
295,31.921, 545
296,32.027, 471
297,32.137, 16
298,32.244, -365
299,32.352, 481
300,32.459, -301
301,32.57, -151
302,32.677, -138
303,32.787, 611
304,32.894, -118
305,33.003, -47
306,33.111, -461
307,33.22, -580
308,33.327, 395
309,33.434, 215
310,33.54, -658
311,33.649, -847
312,33.757, 5
313,33.865, 374
314,33.974, 990
315,34.082, -279
316,34.191, 459
317,34.301, -384
318,34.409, 724
319,34.517, 54
320,34.625, -677
321,34.735, -199
322,34.842, 572
323,34.95, 39
324,35.058, -585
325,35.165, -429
326,35.271, 102
327,35.378, -195
328,35.485, -510
329,35.592, -583
330,35.701, -217
331,35.809, 409
332,35.918, 451
333,36.027, -310
334,36.135, 440
335,36.242, -473
336,36.352, 938
337,36.46, 252
338,36.569, -422
339,36.676, 19
340,36.785, 1076
341,36.895, 1
342,37.005, -219
343,37.11, 363
344,37.22, 444
345,37.326, 199
346,37.436, -620
347,37.543, 89
348,37.651, 371
349,37.759, 184
350,37.867, 417
351,37.977, 706
352,38.086, -193
353,38.198, -213
354,38.306, -503
355,38.416, -287
356,38.523, -634
357,38.631, 138
358,38.739, 120
359,38.849, 453
360,38.958, -28
361,39.065, 550
362,39.173, 8
363,39.283, -63
364,39.393, 360
365,39.502, -821
366,39.612, 711
367,39.721, 662
368,39.83, -755
369,39.936, 1261
370,40.043, -369
371,40.15, 349
372,40.257, -609
373,40.364, -415
374,40.472, 730
375,40.581, 792
376,40.689, 578
377,40.796, 1054
378,40.902, -131
379,41.011, 190
380,41.119, -197
381,41.226, -506
382,41.334, 526
383,41.441, -202
384,41.55, -526
385,41.657, -444
386,41.766, 644
387,41.874, -323
388,41.982, -569
389,42.092, -525
390,42.2, -89
391,42.308, 257
392,42.415, 208
393,42.521, 199
394,42.629, -91
395,42.736, 576
396,42.845, 263
397,42.955, 199
398,43.063, -232
399,43.171, 774
400,43.279, -574
401,43.388, 25
402,43.495, -243
403,43.602, 470
404,43.71, 796
405,43.817, -678
406,43.924, -526
407,44.032, -254
408,44.139, -155
409,44.251, 471
410,44.36, -309
411,44.468, -649
412,44.576, 581
413,44.686, 89
414,44.795, 136
415,44.903, -217
416,45.012, -667
417,45.12, 984
418,45.228, 451
419,45.336, -85
420,45.446, 748
421,45.554, -700
422,45.663, -602
423,45.77, -120
424,45.879, 111
425,45.985, 539
426,46.093, -867
427,46.202, 567
428,46.31, 567
429,46.419, -688
430,46.527, 277
431,46.637, 686
432,46.745, 232
433,46.853, -188
434,46.961, -230
435,47.067, 140
436,47.176, -265
437,47.284, 243
438,47.392, -396
439,47.501, -499
440,47.607, -206
441,47.713, 305
442,47.822, -840
443,47.93, -89
444,48.038, 406
445,48.145, 733
446,48.252, -395
447,48.361, -151
448,48.47, -358
449,48.577, -519
450,48.685, -649
451,48.797, -530
452,48.904, -525
453,49.011, -136
454,49.12, 481
455,49.228, 149
456,49.334, 693
457,49.442, -113
458,49.549, -122
459,49.656, 32
460,49.766, 693
461,49.874, -39
462,49.981, -515
463,50.089, 232
464,50.199, -38
465,50.306, -561
466,50.415, -191
467,50.523, 45
468,50.632, -188
469,50.739, 598
470,50.848, 19
471,50.956, -244
472,51.064, -728
473,51.173, -34
474,51.282, 151
475,51.39, -373
476,51.5, -781
477,51.608, -406
478,51.717, -14
479,51.826, 327
480,51.934, -565
481,52.043, 435
482,52.15, 437
483,52.26, -662
484,52.37, 331
485,52.479, -206
486,52.586, 179
487,52.695, -642
488,52.803, -266
489,52.912, 369
490,53.021, 211
491,53.129, 248
492,53.24, -554
493,53.348, 422
494,53.456, -164
495,53.563, -341
496,53.67, 570
497,53.777, 437
498,53.884, -591
499,53.991, -380
500,54.099, 61
501,54.208, -149
502,54.316, -166
503,54.427, -400
504,54.536, -76
505,54.644, 244
506,54.753, 744
507,54.861, 155
508,54.97, 307
509,55.076, 851
510,55.185, -325
511,55.296, 594
512,55.402, 1012
513,55.511, -257
514,55.618, -173
515,55.727, -331
516,55.836, -570
517,55.942, -442
518,56.051, 103
519,56.161, -34
520,56.269, -614
521,56.376, -228
522,56.485, 669
523,56.593, 195
524,56.702, 94
525,56.813, 235
526,56.921, 616
527,57.029, -288
528,57.139, -354
529,57.248, 369
530,57.354, -310
531,57.462, 801
532,57.571, -219
533,57.68, 230
534,57.787, -367
535,57.896, -8
536,58.002, 166
537,58.111, -398
538,58.219, 435
539,58.326, -547
540,58.436, 426
541,58.545, -556
542,58.653, -307
543,58.76, 94
544,58.871, -482
545,58.979, 345
546,59.086, 23
547,59.193, -351
548,59.302, 65
549,59.409, -131
550,59.516, -721
551,59.625, -32
552,59.733, -530
553,59.843, -345
554,59.951, 616
555,60.061, 752
556,60.171, -91
557,60.278, -12
558,60.387, 565
559,60.497, 298
560,60.603, 1
561,60.712, 202
562,60.823, -318
563,60.932, 757
564,61.039, -402
