i,Tiempo,V error
1,0.0, -13
2,0.111, -55
3,0.218, 0
4,0.328, -15
5,0.437, 15
6,0.548, 13
7,0.657, 27
8,0.766, -13
9,0.876, 0
10,0.984, 55
11,1.093, 0
12,1.312, -111
13,1.42, -417
14,1.528, 1090
15,1.636, -83
16,1.745, 761
17,1.854, -237
18,1.963, 329
19,2.072, -133
20,2.18, 424
21,2.288, 180
22,2.397, 389
23,2.506, 612
24,2.616, 5
25,2.725, -678
26,2.832, 391
27,2.942, 717
28,3.051, 169
29,3.16, -237
30,3.268, -649
31,3.377, 232
32,3.487, 341
33,3.595, -417
34,3.704, 537
35,3.814, -717
36,3.922, 444
37,4.031, -332
38,4.141, -305
39,4.248, 129
40,4.357, -54
41,4.464, -517
42,4.574, -219
43,4.683, -32
44,4.79, -39
45,4.9, -136
46,5.009, 602
47,5.116, -345
48,5.226, -532
49,5.336, -415
50,5.444, 602
51,5.551, 431
52,5.66, 23
53,5.768, -224
54,5.877, -290
55,5.985, 160
56,6.094, 219
57,6.202, -27
58,6.311, 142
59,6.421, -543
60,6.527, -138
61,6.64, -94
62,6.769, 547
63,6.906, -67
64,7.027, -385
65,7.154, -677
66,7.29, -1008
67,7.429, -155
68,7.553, -433
69,7.675, -384
70,7.799, 633
71,7.923, 211
72,8.047, -356
73,8.171, 233
74,8.295, -468
75,8.42, 662
76,8.542, -470
77,8.682, 429
78,8.804, -662
79,8.926, -114
80,9.052, -147
81,9.422, 98
82,9.702, -25
83,9.82, 3
84,9.93, -428
85,10.037, -122
86,10.146, 814
87,10.255, -329
88,10.365, 587
89,10.472, 677
90,10.579, 103
91,10.689, 730
92,10.8, 647
93,10.908, -5
94,11.017, -10
95,11.125, -89
96,11.234, 312
97,11.342, 34
98,11.45, -576
99,11.558, -116
100,11.667, 301
101,11.775, 65
102,11.882, 1003
103,11.992, 202
104,12.101, 741
105,12.212, 127
106,12.32, -1032
107,12.429, -922
108,12.537, 358
109,12.648, -519
110,12.754, 691
111,12.863, 78
112,12.973, -5
113,13.081, -133
114,13.19, -94
115,13.298, 78
116,13.409, 473
117,13.517, 290
118,13.625, -373
119,13.735, -76
120,13.844, -268
121,13.954, 65
122,14.063, -5
123,14.173, 43
124,14.281, 332
125,14.392, 285
126,14.5, -38
127,14.609, 294
128,14.719, 818
129,14.826, 65
130,14.933, 125
131,15.041, -398
132,15.15, -347
133,15.259, -528
134,15.367, -389
135,15.475, 781
136,15.582, -232
137,15.692, -647
138,15.8, -490
139,15.907, -43
140,16.016, 69
141,16.127, 592
142,16.235, 504
143,16.343, -201
144,16.45, -222
145,16.56, -116
146,16.667, -382
147,16.775, -283
148,16.885, -142
149,16.994, 623
150,17.104, 171
151,17.212, -752
152,17.32, 287
153,17.43, 67
154,17.538, 559
155,17.646, 60
156,17.754, -58
157,17.864, 435
158,17.974, 623
159,18.083, 85
160,18.193, 50
161,18.301, -715
162,18.41, 594
163,18.518, 338
164,18.627, -151
165,18.737, 858
166,18.846, -124
167,18.954, 191
168,19.062, -338
169,19.171, -89
170,19.279, 329
171,19.388, 948
172,19.497, -382
173,19.607, 1180
174,19.715, -131
175,19.823, -352
176,19.934, -21
177,20.042, -87
178,20.15, -120
179,20.258, 92
180,20.365, 508
181,20.475, -274
182,20.582, 561
183,20.692, -867
184,20.799, 160
185,20.908, -459
186,21.03, -54
187,21.14, 678
188,21.246, 521
189,21.358, 554
190,21.467, 28
191,21.575, -179
192,21.684, 8
193,21.794, 266
194,21.903, -186
195,22.011, 171
196,22.12, 151
197,22.227, 351
198,22.334, -435
199,22.445, -761
200,22.554, -105
201,22.661, -265
202,22.772, -10
203,22.881, 396
204,22.989, -351
205,23.097, -164
206,23.205, -807
207,23.314, -570
208,23.424, 464
209,23.531, 78
210,23.64, -254
211,23.749, -779
212,23.857, 439
213,23.966, 45
214,24.074, 327
215,24.182, -197
216,24.291, -16
217,24.399, -89
218,24.508, 83
219,24.616, -422
220,24.725, -109
221,24.833, -85
222,24.94, -45
223,25.047, 17
224,25.158, 367
225,25.266, 272
226,25.375, -56
227,25.484, 244
228,25.592, -43
229,25.7, 301
230,25.81, 713
231,25.918, -27
232,26.027, -287
233,26.134, 929
234,26.242, -34
235,26.349, -21
236,26.46, 737
237,26.567, -224
238,26.674, -536
239,26.782, 232
240,26.89, 669
241,26.997, 797
242,27.106, 32
243,27.214, 17
244,27.325, -345
245,27.436, -32
246,27.545, 499
247,27.654, -268
248,27.761, -50
249,27.87, 755
250,27.98, -417
251,28.089, 89
252,28.197, -292
253,28.304, -343
254,28.412, 288
255,28.52, -114
256,28.629, -219
257,28.738, -78
258,28.847, 942
259,28.955, 142
260,29.064, -5
261,29.172, -567
262,29.28, -614
263,29.391, 920
264,29.5, 47
265,29.607, -488
266,29.717, 644
267,29.824, 435
268,29.934, -5
269,30.044, 466
270,30.152, 856
271,30.262, 865
272,30.371, 894
273,30.479, 539
274,30.589, 58
275,30.698, -193
276,30.808, -437
277,30.915, -168
278,31.022, -237
279,31.13, -268
280,31.239, -162
281,31.347, -109
282,31.456, 244
283,31.563, 118
284,31.669, -175
285,31.779, -503
286,31.887, -263
287,31.992, -94
288,32.101, -149
289,32.21, 351
290,32.319, 226
291,32.428, -164
292,32.536, -611
293,32.645, 913
294,32.753, -63
295,32.861, 41
296,32.971, 1109
297,33.079, -17
298,33.188, 347
299,33.295, -180
300,33.404, 149
301,33.511, -107
302,33.618, -554
303,33.728, -89
304,33.837, 56
305,33.946, 922
306,34.055, -547
307,34.164, 318
308,34.272, -715
309,34.384, 281
310,34.494, -191
311,34.603, 563
312,34.709, -250
313,34.816, 36
314,34.924, -94
315,35.031, -292
316,35.143, -76
317,35.254, 766
318,35.363, -506
319,35.472, -400
320,35.581, -6
321,35.687, 27
322,35.795, -609
323,35.905, 409
324,36.013, -371
325,36.123, 1024
326,36.233, -89
327,36.341, -307
328,36.451, -603
329,36.561, -34
330,36.668, 252
331,36.776, -620
332,36.886, -644
333,36.995, -466
334,37.104, -168
335,37.214, 27
336,37.321, 896
337,37.43, 1017
338,37.539, 91
339,37.649, 389
340,37.756, -113
341,37.865, 47
342,37.974, -107
343,38.083, -545
344,38.193, -237
345,38.299, -949
346,38.409, -695
347,38.519, 514
348,38.626, -36
349,38.735, 510
350,38.844, 450
351,38.952, 45
352,39.061, -435
353,39.171, -521
354,39.279, 418
355,39.39, 266
356,39.498, -488
357,39.606, -298
358,39.715, -32
359,39.823, 515
360,39.931, 409
361,40.038, 700
362,40.146, 17
363,40.253, -290
364,40.362, 594
365,40.469, 272
366,40.577, 572
367,40.687, -85
368,40.797, -166
369,40.905, -400
370,41.014, 146
371,41.122, 17
372,41.231, 655
373,41.342, 788
374,41.45, -622
375,41.561, 219
376,41.669, 660
377,41.777, 810
378,41.884, 277
379,41.993, 186
380,42.103, 87
381,42.228, -406
382,42.337, 124
383,42.446, 688
384,42.556, 1241
385,42.666, -151
386,42.774, -514
387,42.883, 462
388,42.993, 869
389,43.103, -65
390,43.211, -329
391,43.32, 243
392,43.43, 266
393,43.539, 605
394,43.646, 45
395,43.755, 382
396,43.864, -224
397,43.972, 992
398,44.079, -700
399,44.187, -744
400,44.295, -142
401,44.403, 288
402,44.513, 49
403,44.622, 671
404,44.73, -76
405,44.839, 563
406,44.949, 296
407,45.056, -614
408,45.164, -241
409,45.272, 360
410,45.381, 904
411,45.489, 125
412,45.596, 177
413,45.706, -340
414,45.816, -1015
415,45.925, -464
416,46.034, -290
417,46.143, -717
418,46.251, -312
419,46.36, 561
420,46.467, 603
421,46.577, 517
422,46.684, 764
423,46.793, -76
424,46.902, -503
425,47.012, 532
426,47.121, 102
427,47.23, -640
428,47.339, 554
429,47.448, -440
430,47.559, 316
431,47.665, -67
432,47.772, 312
433,47.88, 929
434,47.992, 790
435,48.1, 131
436,48.209, 341
437,48.317, 61
438,48.427, -407
439,48.538, 265
440,48.647, -479
441,48.754, 120
442,48.862, -39
443,48.972, 195
444,49.081, -133
445,49.19, 662
446,49.3, 589
447,49.41, -468
448,49.519, -25
449,49.626, -706
450,49.736, -563
451,49.844, -288
452,49.951, 459
453,50.06, -65
454,50.167, 332
455,50.275, -310
456,50.385, 655
457,50.494, -89
458,50.604, 742
459,50.712, 704
460,50.82, 708
461,50.929, 299
462,51.039, 411
463,51.147, 78
464,51.258, -525
465,51.365, -10
466,51.474, -162
467,51.582, -147
468,51.691, 907
469,51.801, -204
470,51.91, -60
471,52.019, -508
472,52.127, -907
473,52.237, 133
474,52.346, -327
475,52.456, 268
476,52.565, 938
477,52.675, -109
478,52.784, -660
479,52.892, -102
480,53.0, -702
481,53.11, -1079
482,53.22, -845
483,53.328, 497
484,53.436, -45
485,53.543, -204
486,53.651, -393
487,53.757, 80
488,53.865, 334
489,53.974, -341
490,54.083, -111
491,54.191, -120
492,54.3, 250
493,54.407, -21
494,54.514, -76
495,54.624, 409
496,54.734, 54
497,54.842, 649
498,54.95, -642
499,55.06, 296
500,55.169, 116
501,55.278, -519
502,55.386, -41
503,55.494, -374
504,55.603, 1180
505,55.709, 246
506,55.818, 428
507,55.926, 406
508,56.035, -437
509,56.144, 261
510,56.252, -138
511,56.361, 23
512,56.47, 576
513,56.578, 479
514,56.687, 47
515,56.794, -179
516,56.904, 113
517,57.013, -146
518,57.121, -83
519,57.231, -94
520,57.339, -354
521,57.449, 1012
522,57.558, 263
523,57.666, 574
524,57.773, 259
525,57.884, 651
526,57.994, 521
527,58.103, -103
528,58.212, 254
529,58.32, -140
530,58.429, -39
531,58.539, -80
532,58.647, -413
533,58.757, -519
534,58.866, 547
535,58.975, -171
536,59.084, -14
537,59.191, 327
538,59.301, -160
539,59.409, -746
540,59.518, -113
541,59.625, 142
542,59.734, -54
543,59.841, -72
544,59.949, -91
545,60.058, -78
546,60.168, 122
547,60.275, 1129
548,60.382, 109
549,60.489, 320
550,60.597, 1429
551,60.706, 105
552,60.814, -138
553,60.924, -510
554,61.032, -61
