i,Tiempo,V error
1,0.0, 66
2,0.109, -9
3,0.218, -9
4,0.326, -9
5,0.434, -9
6,0.543, -18
7,0.653, -9
8,0.762, -29
9,0.869, 0
10,0.976, 18
11,1.083, 9
12,1.301, -149
13,1.412, -742
14,1.52, -232
15,1.63, 730
16,1.738, -633
17,1.847, 142
18,1.955, -257
19,2.063, -34
20,2.172, -87
21,2.281, 69
22,2.391, -384
23,2.499, 1039
24,2.61, -47
25,2.718, 713
26,2.826, -711
27,2.935, -292
28,3.043, -580
29,3.152, 724
30,3.26, 50
31,3.368, -149
32,3.478, 287
33,3.586, 222
34,3.694, -5
35,3.803, 871
36,3.913, -605
37,4.02, 80
38,4.13, 168
39,4.238, -58
40,4.346, 309
41,4.454, -396
42,4.563, -525
43,4.671, 352
44,4.782, 481
45,4.89, -558
46,5.0, -493
47,5.108, 968
48,5.217, -351
49,5.326, 352
50,5.435, 56
51,5.544, 475
52,5.654, -362
53,5.765, -398
54,5.874, -710
55,5.981, -673
56,6.089, -142
57,6.199, -362
58,6.307, 287
59,6.415, -768
60,6.523, -23
61,6.632, -179
62,6.743, 179
63,6.851, -525
64,6.962, 142
65,7.07, 87
66,7.177, -717
67,7.285, 250
68,7.394, 109
69,7.504, -70
70,7.613, -153
71,7.721, 457
72,7.83, 254
73,7.939, -219
74,8.048, -633
75,8.156, -27
76,8.264, 301
77,8.374, -321
78,8.483, -56
79,8.591, -255
80,8.701, -569
81,8.807, 36
82,8.915, -358
83,9.024, 764
84,9.132, 541
85,9.241, -327
86,9.351, 285
87,9.462, -274
88,9.57, -618
89,9.682, -30
90,9.79, 450
91,9.899, -592
92,10.007, 140
93,10.116, 32
94,10.224, 19
95,10.334, 431
96,10.445, 556
97,10.555, -91
98,10.662, -136
99,10.771, 543
100,10.879, 887
101,10.987, 49
102,11.098, -63
103,11.205, 739
104,11.315, 241
105,11.424, -155
106,11.532, -558
107,11.642, 186
108,11.752, -39
109,11.861, -155
110,11.971, -124
111,12.08, -206
112,12.188, -338
113,12.298, -281
114,12.405, -570
115,12.512, 144
116,12.621, 94
117,12.73, -812
118,12.84, 807
119,12.949, -400
120,13.058, 492
121,13.166, 786
122,13.275, 14
123,13.384, -495
124,13.493, -290
125,13.601, -261
126,13.71, -671
127,13.818, -199
128,13.926, -114
129,14.036, 133
130,14.144, -510
131,14.252, -479
132,14.36, -554
133,14.468, -671
134,14.577, -616
135,14.686, 418
136,14.796, 554
137,14.908, -94
138,15.017, -32
139,15.126, 627
140,15.234, -186
141,15.343, 666
142,15.453, 482
143,15.561, -140
144,15.67, 583
145,15.778, -124
146,15.886, -323
147,15.994, -722
148,16.105, 548
149,16.214, -1156
150,16.322, 614
151,16.428, 832
152,16.537, 206
153,16.645, 257
154,16.753, 651
155,16.861, 14
156,16.969, -237
157,17.079, -453
158,17.189, -440
159,17.296, 149
160,17.404, 482
161,17.512, 464
162,17.622, 70
163,17.729, -107
164,17.839, -177
165,17.947, 94
166,18.056, 429
167,18.168, -230
168,18.276, -563
169,18.384, 525
170,18.492, 8
171,18.601, -136
172,18.709, 407
173,18.819, 1182
174,18.929, -721
175,19.035, -477
176,19.145, -376
177,19.252, 697
178,19.361, 173
179,19.472, 131
180,19.58, -1175
181,19.689, 222
182,19.797, 764
183,19.906, 753
184,20.014, 252
185,20.124, -3
186,20.233, 554
187,20.341, 439
188,20.447, 591
189,20.556, 413
190,20.664, 114
191,20.774, 3
192,20.883, -91
193,20.992, -404
194,21.1, 16
195,21.208, -1
196,21.316, 338
197,21.425, -100
198,21.534, -448
199,21.641, -224
200,21.75, 951
201,21.858, -250
202,21.968, 391
203,22.075, 1094
204,22.183, 83
205,22.293, -433
206,22.403, 19
207,22.51, 700
208,22.619, 105
209,22.728, 819
210,22.838, -296
211,22.945, -173
212,23.052, 41
213,23.161, -468
214,23.269, -118
215,23.378, 201
216,23.489, 228
217,23.598, 3
218,23.706, -179
219,23.815, -34
220,23.922, -105
221,24.03, -168
222,24.139, -279
223,24.249, -191
224,24.356, 686
225,24.465, -158
226,24.573, 98
227,24.681, -323
228,24.791, 774
229,24.9, -592
230,25.01, 699
231,25.12, -135
232,25.23, -47
233,25.34, -345
234,25.449, 67
235,25.558, 464
236,25.667, -91
237,25.776, 274
238,25.885, -146
239,25.994, -111
240,26.103, 19
241,26.212, 678
242,26.321, -153
243,26.429, -78
244,26.536, -358
245,26.645, 411
246,26.754, 446
247,26.862, -545
248,26.971, 277
249,27.08, -116
250,27.189, 647
251,27.298, -431
252,27.406, -543
253,27.514, -60
254,27.623, 525
255,27.732, -23
256,27.841, -374
257,27.95, -1015
258,28.059, -248
259,28.169, -572
260,28.277, -107
261,28.387, 440
262,28.495, 305
263,28.603, 331
264,28.712, -204
265,28.821, 666
266,28.93, 360
267,29.04, 415
268,29.149, -116
269,29.259, 21
270,29.367, 1094
271,29.476, 400
272,29.584, 830
273,29.694, -114
274,29.801, 298
275,29.91, 153
276,30.02, -1
277,30.129, -144
278,30.238, -52
279,30.346, 65
280,30.455, -979
281,30.561, 770
282,30.67, 688
283,30.779, -471
284,30.888, 38
285,30.996, -669
286,31.104, 688
287,31.213, 28
288,31.322, 528
289,31.43, -49
290,31.538, -135
291,31.647, -85
292,31.756, -671
293,31.864, -345
294,31.973, 327
295,32.082, -660
296,32.19, 244
297,32.299, 228
298,32.41, 72
299,32.519, 444
300,32.627, -812
301,32.735, -677
302,32.844, -323
303,32.952, 603
304,33.058, 807
305,33.167, 91
306,33.276, 43
307,33.384, -356
308,33.493, 583
309,33.601, -138
310,33.709, 244
311,33.817, -135
312,33.925, -439
313,34.034, 78
314,34.142, -785
315,34.25, 222
316,34.359, -131
317,34.466, 125
318,34.573, -296
319,34.681, 354
320,34.789, 41
321,34.899, -180
322,35.007, -92
323,35.118, -404
324,35.225, -960
325,35.336, -675
326,35.444, -138
327,35.551, 43
328,35.66, -675
329,35.768, -644
330,35.878, 581
331,35.986, -699
332,36.093, -21
333,36.203, 362
334,36.313, 102
335,36.422, -543
336,36.532, 486
337,36.642, 801
338,36.751, 76
339,36.862, 515
340,36.971, -636
341,37.079, -519
342,37.188, -325
343,37.297, 147
344,37.407, 213
345,37.518, 565
346,37.626, 338
347,37.735, -647
348,37.842, 752
349,37.951, 924
350,38.059, -287
351,38.169, -512
352,38.278, -96
353,38.388, 525
354,38.497, -191
355,38.605, -488
356,38.714, 970
357,38.822, 199
358,38.93, 208
359,39.038, 578
360,39.149, -576
361,39.256, -525
362,39.366, 444
363,39.474, -201
364,39.582, -92
365,39.69, 594
366,39.797, -499
367,39.905, 8
368,40.012, -155
369,40.121, -439
370,40.228, -160
371,40.337, 591
372,40.446, 450
373,40.555, -338
374,40.666, -164
375,40.776, -543
376,40.884, 510
377,40.993, 896
378,41.101, -466
379,41.209, -120
380,41.319, -431
381,41.428, -301
382,41.536, -675
383,41.646, 753
384,41.755, -534
385,41.864, 459
386,41.975, -362
387,42.083, 175
388,42.192, -142
389,42.3, 221
390,42.407, -479
391,42.516, -323
392,42.624, -8
393,42.732, -482
394,42.841, 761
395,42.95, 122
396,43.059, 558
397,43.166, -545
398,43.278, 779
399,43.386, 309
400,43.496, -625
401,43.606, -933
402,43.714, -569
403,43.823, -210
404,43.931, -265
405,44.039, 975
406,44.149, 39
407,44.258, -34
408,44.366, -803
409,44.476, 979
410,44.584, 343
411,44.693, -102
412,44.804, -314
413,44.913, 69
414,45.021, 76
415,45.132, -98
416,45.24, -10
417,45.349, -50
418,45.457, 21
419,45.567, -197
420,45.675, -801
421,45.782, 402
422,45.892, 649
423,46.003, -168
424,46.113, -109
425,46.222, -146
426,46.334, -114
427,46.441, -21
428,46.549, -896
429,46.659, 805
430,46.769, 387
431,46.879, -799
432,46.988, 206
433,47.098, 184
434,47.207, -1127
435,47.317, -587
436,47.425, 39
437,47.532, -23
438,47.641, 25
439,47.75, -563
440,47.86, 675
441,47.967, 27
442,48.076, 393
443,48.184, 471
444,48.293, 1
445,48.403, -133
446,48.511, 114
447,48.621, -72
448,48.729, -363
449,48.84, 28
450,48.95, 596
451,49.06, -797
452,49.167, 477
453,49.276, -190
454,49.388, 158
455,49.499, -428
456,49.607, 506
457,49.715, -702
458,49.822, -127
459,49.934, 387
460,50.044, -327
461,50.152, -235
462,50.262, -343
463,50.37, 147
464,50.477, -537
465,50.587, 653
466,50.695, -147
467,50.806, -953
468,50.913, 316
469,51.022, 135
470,51.132, -475
471,51.241, 47
472,51.352, 219
473,51.461, 144
474,51.569, 268
475,51.679, -523
476,51.788, -91
477,51.897, -517
478,52.006, -1
479,52.116, 45
480,52.225, -131
481,52.335, -623
482,52.445, 691
483,52.554, -486
484,52.663, -417
485,52.771, -418
486,52.877, 334
487,52.988, 612
488,53.099, 195
489,53.208, 563
490,53.316, 911
491,53.426, -417
492,53.537, 204
493,53.646, 706
494,53.757, 385
495,53.867, 656
496,53.975, -281
497,54.085, 418
498,54.195, 766
499,54.304, -96
500,54.414, -351
501,54.523, -905
502,54.631, -523
503,54.74, -263
504,54.849, -396
505,54.959, -514
506,55.065, -503
507,55.174, 14
508,55.284, -656
509,55.393, -444
510,55.502, -39
511,55.613, 770
512,55.723, 60
513,55.833, 109
514,55.941, -523
515,56.049, 268
516,56.159, 259
517,56.268, 100
518,56.376, -250
519,56.485, -360
520,56.593, 151
521,56.704, -464
522,56.812, -537
523,56.922, 162
524,57.031, 69
525,57.14, -107
526,57.247, -91
527,57.358, -237
528,57.467, -680
529,57.574, -124
530,57.684, 142
531,57.795, -312
532,57.904, -530
533,58.013, -305
534,58.123, 25
535,58.233, -367
536,58.343, 955
537,58.454, -61
538,58.561, -387
539,58.672, 730
540,58.78, 201
541,58.891, 883
542,59.001, -129
543,59.11, 279
544,59.219, 697
545,59.329, -415
546,59.439, -341
547,59.547, 58
548,59.656, 556
549,59.764, -277
550,59.874, -6
551,59.984, -171
552,60.092, 920
553,60.203, 854
554,60.312, 125
555,60.422, -219
556,60.531, -356
557,60.64, -744
558,60.747, -627
559,60.856, -166
560,60.965, -396
561,61.074, 435
