i,Tiempo,V error
1,0.0, 60
2,0.11, -13
3,0.217, 60
4,0.326, 0
5,0.435, 0
6,0.541, 13
7,0.65, 0
8,0.76, 60
9,0.87, 11
10,0.979, -60
11,1.088, -62
12,1.302, -588
13,1.41, -704
14,1.52, 387
15,1.63, 343
16,1.738, 622
17,1.848, 396
18,1.956, 843
19,2.063, -514
20,2.172, 808
21,2.284, -543
22,2.392, 786
23,2.5, -371
24,2.623, -5
25,2.731, 81
26,2.841, 67
27,2.95, 36
28,3.06, -180
29,3.169, -336
30,3.278, 605
31,3.399, 103
32,3.508, 1
33,3.616, 662
34,3.723, 627
35,3.831, -340
36,3.938, -757
37,4.048, -103
38,4.154, -834
39,4.265, 261
40,4.372, 14
41,4.482, -28
42,4.592, -471
43,4.701, 261
44,4.812, -107
45,4.921, 241
46,5.029, -222
47,5.14, -103
48,5.25, 420
49,5.36, 532
50,5.467, 757
51,5.574, 356
52,5.684, 462
53,5.795, -362
54,5.904, -276
55,6.015, -89
56,6.124, 678
57,6.232, 195
58,6.339, 50
59,6.448, 585
60,6.556, -455
61,6.664, 91
62,6.772, 102
63,6.882, -122
64,6.99, 340
65,7.098, -567
66,7.207, -248
67,7.314, 248
68,7.423, 125
69,7.532, -519
70,7.64, -823
71,7.75, -131
72,7.86, -301
73,7.969, -124
74,8.079, -525
75,8.188, -662
76,8.297, -10
77,8.408, 180
78,8.517, -872
79,8.625, 336
80,8.733, -1
81,8.84, -620
82,8.948, -525
83,9.058, -393
84,9.166, 1072
85,9.275, -142
86,9.384, -179
87,9.493, -517
88,9.603, 197
89,9.712, -140
90,9.823, -543
91,9.93, 12
92,10.039, 307
93,10.148, -118
94,10.273, -591
95,10.381, 125
96,10.489, -576
97,10.597, -224
98,10.707, 54
99,10.816, -526
100,10.925, -98
101,11.034, -332
102,11.145, 658
103,11.254, -3
104,11.364, -363
105,11.472, -865
106,11.581, -12
107,11.692, 61
108,11.8, -47
109,11.909, -792
110,12.019, -120
111,12.128, 384
112,12.237, -797
113,12.344, -237
114,12.455, -530
115,12.563, 719
116,12.673, 310
117,12.78, 697
118,12.887, 265
119,12.996, 8
120,13.105, 561
121,13.213, -204
122,13.321, 713
123,13.431, 812
124,13.541, -439
125,13.649, 843
126,13.757, 8
127,13.865, 314
128,13.973, 255
129,14.084, -700
130,14.193, 12
131,14.301, -920
132,14.409, -547
133,14.517, -541
134,14.626, 387
135,14.735, -246
136,14.844, 56
137,14.952, 8
138,15.062, -349
139,15.169, -5
140,15.281, 69
141,15.388, 100
142,15.498, 785
143,15.607, -8
144,15.714, -122
145,15.824, 893
146,15.932, -334
147,16.041, 177
148,16.151, -191
149,16.258, 440
150,16.367, -188
151,16.476, 667
152,16.585, 188
153,16.693, -39
154,16.804, -418
155,16.913, 14
156,17.021, -689
157,17.13, 799
158,17.239, -865
159,17.348, 673
160,17.458, 790
161,17.567, 689
162,17.677, -85
163,17.785, 290
164,17.892, 741
165,18.001, -457
166,18.109, 102
167,18.218, 625
168,18.326, -596
169,18.435, -85
170,18.544, -268
171,18.655, -135
172,18.764, 515
173,18.873, -453
174,18.981, 27
175,19.088, -206
176,19.197, 177
177,19.305, -486
178,19.415, -94
179,19.523, -254
180,19.634, 625
181,19.743, 193
182,19.85, 982
183,19.961, 905
184,20.071, 883
185,20.181, 173
186,20.29, 27
187,20.399, 896
188,20.508, -1
189,20.615, -909
190,20.725, -783
191,20.833, -396
192,20.942, 667
193,21.05, -605
194,21.157, -464
195,21.268, 504
196,21.376, 424
197,21.485, 169
198,21.594, -446
199,21.7, -85
200,21.809, -221
201,21.92, 462
202,22.03, 376
203,22.137, 435
204,22.247, -116
205,22.355, 89
206,22.464, -91
207,22.573, 561
208,22.683, -735
209,22.793, -589
210,22.901, -481
211,23.011, 384
212,23.121, 713
213,23.23, -10
214,23.34, -243
215,23.447, -680
216,23.557, -559
217,23.666, 554
218,23.775, 160
219,23.885, -329
220,23.992, 565
221,24.101, -314
222,24.21, -526
223,24.319, -292
224,24.426, -547
225,24.536, -107
226,24.646, -354
227,24.755, 402
228,24.864, -164
229,24.973, -221
230,25.097, -21
231,25.205, -175
232,25.312, 960
233,25.418, 78
234,25.527, -569
235,25.635, 358
236,25.745, -114
237,25.854, -482
238,25.961, -142
239,26.068, 838
240,26.176, 338
241,26.284, -215
242,26.394, 54
243,26.503, -45
244,26.613, -255
245,26.721, -50
246,26.831, -602
247,26.946, 61
248,27.077, -78
249,27.184, 382
250,27.296, -146
251,27.404, 1176
252,27.51, 151
253,27.618, -395
254,27.727, -47
255,27.836, -147
256,27.944, 406
257,28.05, -239
258,28.159, -396
259,28.266, -583
260,28.377, -371
261,28.485, -219
262,28.594, 80
263,28.701, -129
264,28.809, -362
265,28.916, 737
266,29.025, 482
267,29.134, -21
268,29.244, -407
269,29.355, 270
270,29.463, 695
271,29.574, -314
272,29.68, 470
273,29.789, -461
274,29.897, -91
275,30.008, 732
276,30.116, 519
277,30.224, -164
278,30.333, 510
279,30.441, -230
280,30.551, -477
281,30.659, 602
282,30.767, 462
283,30.876, -50
284,30.984, 417
285,31.094, -755
286,31.202, 882
287,31.309, -515
288,31.418, 5
289,31.529, -843
290,31.637, -56
291,31.747, -80
292,31.856, 347
293,31.966, -1074
294,32.079, 955
295,32.189, -545
296,32.298, -448
297,32.407, 506
298,32.517, -550
299,32.627, 16
300,32.735, -83
301,32.845, 268
302,32.954, -213
303,33.063, 356
304,33.172, -160
305,33.28, 21
306,33.388, 526
307,33.5, 332
308,33.609, 1046
309,33.718, 169
310,33.83, -717
311,33.939, 1
312,34.05, -213
313,34.163, -45
314,34.271, -197
315,34.382, 426
316,34.492, -382
317,34.601, 28
318,34.711, -129
319,34.82, -400
320,34.931, 415
321,35.04, -946
322,35.151, -169
323,35.261, -184
324,35.368, -184
325,35.479, 21
326,35.588, -803
327,35.696, 493
328,35.805, -340
329,35.915, 400
330,36.024, 506
331,36.134, 217
332,36.241, -1067
333,36.352, -257
334,36.464, -428
335,36.572, 210
336,36.684, -327
337,36.792, 169
338,36.901, -316
339,37.014, 552
340,37.124, -109
341,37.233, -138
342,37.346, -600
343,37.455, -16
344,37.567, 6
345,37.676, -83
346,37.786, -155
347,37.898, 283
348,38.009, -611
349,38.119, 768
350,38.227, -127
351,38.336, -327
352,38.447, 761
353,38.557, 750
354,38.666, 235
355,38.776, 138
356,38.887, -279
357,38.997, -168
358,39.104, -169
359,39.212, 869
360,39.322, 338
361,39.431, 259
362,39.54, 479
363,39.65, 184
364,39.758, 429
365,39.865, 23
366,39.972, 162
367,40.081, 135
368,40.19, -276
369,40.298, -493
370,40.406, -829
371,40.516, -373
372,40.625, 164
373,40.735, -428
374,40.843, -252
375,40.953, -301
376,41.063, -250
377,41.174, 149
378,41.283, -660
379,41.391, 578
380,41.502, -862
381,41.611, -36
382,41.721, -197
383,41.831, -360
384,41.938, -69
385,42.047, 213
386,42.158, -633
387,42.266, -23
388,42.375, 270
389,42.483, -61
390,42.594, -852
391,42.703, 252
392,42.813, 184
393,42.925, -547
394,43.034, 530
395,43.146, 105
396,43.255, 199
397,43.366, -682
398,43.477, 686
399,43.586, 440
400,43.695, -402
401,43.802, 477
402,43.912, 39
403,44.021, 12
404,44.132, -475
405,44.242, 332
406,44.352, -80
407,44.462, -41
408,44.57, 838
409,44.681, -83
410,44.791, 365
411,44.901, 700
412,45.009, 136
413,45.119, 314
414,45.229, -237
415,45.339, -363
416,45.447, -191
417,45.557, -226
418,45.666, -591
419,45.775, 56
420,45.884, -52
421,45.995, -74
422,46.106, 948
423,46.215, -719
424,46.323, -521
425,46.433, 777
426,46.541, -589
427,46.651, -244
428,46.762, -744
429,46.871, 750
430,46.983, 883
431,47.09, 360
432,47.2, -1096
433,47.31, -67
434,47.419, -457
435,47.526, -724
436,47.636, -407
437,47.746, 664
438,47.854, -89
439,47.964, -182
440,48.075, -572
441,48.184, 5
442,48.292, 60
443,48.403, -116
444,48.512, 124
445,48.622, -829
446,48.732, -1059
447,48.838, -495
448,48.947, 818
449,49.055, 248
450,49.162, 294
451,49.272, -331
452,49.381, -711
453,49.49, 168
454,49.6, -583
455,49.709, -669
456,49.82, 666
457,49.931, -136
458,50.04, -23
459,50.15, 63
460,50.259, -81
461,50.368, 202
462,50.478, -1068
463,50.587, 336
464,50.697, 774
465,50.809, 3
466,50.915, -816
467,51.026, -274
468,51.135, 298
469,51.243, 290
470,51.355, 640
471,51.464, -30
472,51.574, -202
473,51.684, 332
474,51.794, 356
475,51.903, 69
476,52.011, -569
477,52.12, -750
478,52.231, 160
479,52.339, -151
480,52.449, 52
481,52.557, 184
482,52.665, -660
483,52.774, 684
484,52.885, -349
485,52.995, 678
486,53.106, -700
487,53.215, -316
488,53.324, 532
489,53.434, -14
490,53.543, -60
491,53.653, -85
492,53.766, 157
493,53.873, -583
494,53.983, 761
495,54.095, -116
496,54.203, 673
497,54.314, -455
498,54.421, -27
499,54.53, -16
500,54.639, -627
501,54.749, 395
502,54.857, -36
503,54.969, -78
504,55.08, 96
505,55.189, 323
506,55.3, -213
507,55.406, 321
508,55.516, -180
509,55.627, -336
510,55.736, -21
511,55.845, -288
512,55.954, -21
513,56.065, 45
514,56.176, -180
515,56.286, 942
516,56.397, 345
517,56.506, -409
518,56.616, -83
519,56.727, 6
520,56.835, 594
521,56.944, 60
522,57.053, 116
523,57.163, 493
524,57.273, 320
525,57.382, -365
526,57.495, 473
527,57.603, -135
528,57.711, 473
529,57.819, -644
530,57.927, -874
531,58.035, 422
532,58.144, -671
533,58.254, 514
534,58.363, 563
535,58.472, 332
536,58.581, 28
537,58.692, 72
538,58.801, 363
539,58.91, 87
540,59.02, -374
541,59.132, 60
542,59.242, 136
543,59.352, -724
544,59.462, -444
545,59.573, -92
546,59.683, 391
547,59.794, -131
548,59.901, -72
549,60.01, 937
550,60.119, 288
551,60.229, 1067
552,60.338, 448
553,60.449, -794
554,60.557, 955
555,60.666, -455
556,60.775, 585
557,60.885, 440
558,60.994, 803
559,61.103, 437
