i,Tiempo,I comando
1,0.0, 0
2,0.107, 0
3,0.215, 0
4,0.322, 0
5,0.433, 0
6,0.542, 0
7,0.65, 0
8,0.757, 0
9,0.867, 0
10,0.978, 0
11,1.084, 0
12,1.301, 116
13,1.41, 127
14,1.52, 136
15,1.628, 80
16,1.736, 60
17,1.843, 72
18,1.95, 75
19,2.058, 64
20,2.168, 69
21,2.276, 65
22,2.383, 65
23,2.491, 78
24,2.599, 65
25,2.709, 64
26,2.819, 79
27,2.929, 60
28,3.038, 76
29,3.149, 75
30,3.258, 60
31,3.368, 81
32,3.477, 72
33,3.583, 67
34,3.689, 76
35,3.796, 61
36,3.905, 55
37,4.013, 84
38,4.12, 70
39,4.228, 61
40,4.335, 76
41,4.443, 64
42,4.55, 66
43,4.657, 70
44,4.765, 68
45,4.873, 82
46,4.98, 65
47,5.086, 49
48,5.193, 79
49,5.304, 75
50,5.412, 76
51,5.522, 71
52,5.629, 62
53,5.739, 69
54,5.848, 79
55,5.954, 70
56,6.062, 74
57,6.174, 69
58,6.283, 64
59,6.39, 87
60,6.498, 68
61,6.606, 67
62,6.714, 82
63,6.822, 68
64,6.929, 56
65,7.038, 69
66,7.147, 60
67,7.255, 87
68,7.363, 77
69,7.471, 62
70,7.578, 80
71,7.686, 76
72,7.794, 69
73,7.9, 80
74,8.011, 61
75,8.121, 82
76,8.23, 89
77,8.341, 70
78,8.449, 69
79,8.557, 64
80,8.666, 66
81,8.774, 80
82,8.882, 71
83,8.992, 60
84,9.101, 68
85,9.209, 65
86,9.319, 82
87,9.425, 83
88,9.535, 63
89,9.643, 76
90,9.751, 77
91,9.86, 62
92,9.971, 77
93,10.081, 71
94,10.189, 64
95,10.296, 78
96,10.405, 70
97,10.514, 75
98,10.624, 78
99,10.733, 59
100,10.84, 75
101,10.951, 80
102,11.06, 61
103,11.169, 74
104,11.28, 77
105,11.389, 68
106,11.499, 77
107,11.606, 69
108,11.716, 70
109,11.824, 82
110,11.932, 62
111,12.04, 74
112,12.149, 73
113,12.257, 66
114,12.366, 75
115,12.475, 75
116,12.583, 67
117,12.691, 85
118,12.8, 64
119,12.91, 56
120,13.017, 75
121,13.126, 65
122,13.235, 79
123,13.346, 68
124,13.453, 62
125,13.561, 75
126,13.668, 76
127,13.78, 69
128,13.889, 76
129,13.997, 63
130,14.105, 61
131,14.214, 82
132,14.323, 70
133,14.435, 75
134,14.544, 77
135,14.655, 67
136,14.762, 68
137,14.873, 69
138,14.98, 72
139,15.09, 86
140,15.199, 71
141,15.308, 61
142,15.416, 76
143,15.526, 59
144,15.634, 83
145,15.744, 73
146,15.853, 57
147,15.963, 65
148,16.068, 72
149,16.176, 57
150,16.285, 74
151,16.396, 66
152,16.505, 58
153,16.614, 79
154,16.725, 73
155,16.834, 76
156,16.942, 74
157,17.051, 53
158,17.16, 76
159,17.269, 75
160,17.378, 65
161,17.487, 73
162,17.596, 64
163,17.702, 63
164,17.812, 84
165,17.921, 80
166,18.029, 74
167,18.137, 76
168,18.244, 68
169,18.351, 78
170,18.458, 68
171,18.567, 59
172,18.677, 77
173,18.786, 77
174,18.892, 56
175,19.001, 77
176,19.11, 61
177,19.217, 80
178,19.325, 77
179,19.434, 55
180,19.541, 66
181,19.649, 80
182,19.757, 67
183,19.866, 71
184,19.975, 71
185,20.083, 71
186,20.195, 80
187,20.304, 77
188,20.414, 67
189,20.524, 76
190,20.632, 70
191,20.74, 82
192,20.849, 75
193,20.957, 66
194,21.064, 76
195,21.17, 74
196,21.279, 64
197,21.388, 82
198,21.499, 64
199,21.607, 66
200,21.716, 82
201,21.825, 72
202,21.934, 70
203,22.044, 79
204,22.154, 64
205,22.261, 75
206,22.368, 78
207,22.475, 59
208,22.585, 70
209,22.696, 61
210,22.806, 69
211,22.917, 77
212,23.026, 66
213,23.133, 68
214,23.242, 76
215,23.35, 59
216,23.456, 85
217,23.565, 74
218,23.672, 60
219,23.78, 77
220,23.89, 68
221,23.999, 68
222,24.107, 81
223,24.215, 68
224,24.324, 74
225,24.43, 86
226,24.537, 55
227,24.646, 66
228,24.754, 78
229,24.862, 62
230,24.971, 72
231,25.078, 65
232,25.188, 57
233,25.299, 81
234,25.405, 74
235,25.513, 71
236,25.622, 75
237,25.731, 58
238,25.839, 73
239,25.948, 79
240,26.055, 55
241,26.165, 71
242,26.272, 69
243,26.381, 69
244,26.487, 76
245,26.595, 70
246,26.703, 61
247,26.815, 80
248,26.924, 72
249,27.034, 74
250,27.141, 69
251,27.248, 62
252,27.358, 68
253,27.468, 69
254,27.576, 64
255,27.683, 73
256,27.791, 68
257,27.899, 70
258,28.008, 79
259,28.116, 62
260,28.226, 68
261,28.337, 73
262,28.448, 70
263,28.555, 78
264,28.664, 74
265,28.773, 61
266,28.879, 79
267,28.989, 75
268,29.097, 71
269,29.205, 79
270,29.314, 58
271,29.422, 77
272,29.529, 78
273,29.639, 62
274,29.748, 73
275,29.856, 71
276,29.965, 70
277,30.074, 84
278,30.183, 75
279,30.294, 61
280,30.402, 82
281,30.51, 60
282,30.619, 72
283,30.727, 81
284,30.835, 69
285,30.945, 71
286,31.054, 77
