i,Tiempo,V error
1,0.0, -9
2,0.108, 11
3,0.217, 62
4,0.327, -9
5,0.435, 0
6,0.542, -20
7,0.65, 20
8,0.76, -51
9,0.868, -11
10,0.977, 0
11,1.088, 51
12,1.304, 623
13,1.413, -255
14,1.522, -69
15,1.631, -6
16,1.74, 243
17,1.849, 744
18,1.959, -490
19,2.067, 664
20,2.175, -567
21,2.284, 188
22,2.392, 812
23,2.501, -730
24,2.61, 781
25,2.718, -166
26,2.827, -47
27,2.934, 461
28,3.044, 211
29,3.153, 114
30,3.263, -658
31,3.372, -790
32,3.481, 243
33,3.59, -338
34,3.698, -287
35,3.809, 600
36,3.917, -96
37,4.026, -323
38,4.138, 550
39,4.242, 296
40,4.35, 17
41,4.458, 534
42,4.569, 706
43,4.678, -195
44,4.786, 341
45,4.893, -85
46,5.003, 12
47,5.112, 239
48,5.221, -682
49,5.328, -190
50,5.436, 885
51,5.544, -16
52,5.653, 43
53,5.762, -67
54,5.869, 153
55,5.976, 770
56,6.086, 574
57,6.196, -21
58,6.303, -224
59,6.41, -100
60,6.52, -827
61,6.627, -409
62,6.734, -173
63,6.846, -411
64,6.954, 102
65,7.065, 832
66,7.174, -680
67,7.282, 329
68,7.39, -206
69,7.5, 468
70,7.609, -510
71,7.717, 777
72,7.825, 761
73,7.934, -376
74,8.043, 180
75,8.152, 129
76,8.263, 63
77,8.371, 41
78,8.48, -144
79,8.587, -470
80,8.7, -537
81,8.808, 492
82,8.917, 796
83,9.027, 211
84,9.137, -400
85,9.246, -437
86,9.353, 682
87,9.463, 644
88,9.571, -32
89,9.682, -283
90,9.79, -127
91,9.898, 658
92,10.007, -537
93,10.116, -120
94,10.223, -72
95,10.332, 391
96,10.44, 464
97,10.551, -276
98,10.659, 105
99,10.767, -724
100,10.878, 202
101,10.987, 25
102,11.098, -244
103,11.207, 440
104,11.313, -440
105,11.421, 80
106,11.528, 224
107,11.638, 471
108,11.745, -61
109,11.852, -259
110,11.96, 642
111,12.069, -272
112,12.176, 616
113,12.285, -444
114,12.396, -10
115,12.503, -102
116,12.612, -508
117,12.721, -541
118,12.831, 1321
119,12.94, -160
120,13.049, 570
121,13.159, 351
122,13.268, 521
123,13.378, 211
124,13.486, 724
125,13.596, -433
126,13.705, -100
127,13.814, -633
128,13.921, -118
129,14.031, -43
130,14.14, 270
131,14.251, 199
132,14.36, -206
133,14.467, -197
134,14.575, 265
135,14.685, -228
136,14.796, 874
137,14.904, 636
138,15.012, 142
139,15.12, -466
140,15.227, 314
141,15.335, -435
142,15.446, -340
143,15.553, 365
144,15.663, -400
145,15.772, 92
146,15.88, 140
147,15.987, 645
148,16.094, 292
149,16.204, -111
150,16.315, 202
151,16.423, -580
152,16.533, -455
153,16.641, -439
154,16.748, 675
155,16.858, -243
156,16.966, -484
157,17.077, 404
158,17.186, -125
159,17.297, -6
160,17.406, 396
161,17.513, 422
162,17.623, 506
163,17.733, 113
164,17.842, 28
165,17.951, -574
166,18.059, 94
167,18.167, -213
168,18.275, -103
169,18.383, -744
170,18.492, -889
171,18.601, 880
172,18.708, 810
173,18.817, 422
174,18.923, 504
175,19.033, -627
176,19.142, -775
177,19.254, 310
178,19.364, 365
179,19.472, -76
180,19.579, 351
181,19.688, 541
182,19.798, -331
183,19.906, -135
184,20.013, -83
185,20.123, -677
186,20.23, 116
187,20.339, 554
188,20.447, -894
189,20.555, -16
190,20.665, -354
191,20.774, -631
192,20.885, 968
193,20.993, 138
194,21.1, 655
195,21.21, -109
196,21.319, 6
197,21.427, -521
198,21.535, -602
199,21.643, 777
200,21.751, -81
201,21.86, 1032
202,21.966, 872
203,22.075, -63
204,22.185, 781
205,22.294, 786
206,22.4, 358
207,22.509, 197
208,22.618, 10
209,22.729, -224
210,22.839, 536
211,22.947, 865
212,23.057, 28
213,23.165, -21
214,23.273, 230
215,23.382, -345
216,23.49, -395
217,23.599, 444
218,23.707, -620
219,23.816, -16
220,23.925, 556
221,24.034, -552
222,24.144, -250
223,24.252, 340
224,24.359, 471
225,24.468, 87
226,24.576, 74
227,24.684, 678
228,24.793, -191
229,24.901, 598
230,25.009, -479
231,25.115, -27
232,25.223, -699
233,25.33, 464
234,25.439, -92
235,25.549, -373
236,25.658, -589
237,25.766, -926
238,25.876, -122
239,25.985, -202
240,26.094, -653
241,26.202, 243
242,26.312, -413
243,26.42, -486
244,26.527, 168
245,26.635, -266
246,26.742, -558
247,26.851, -475
248,26.96, -96
249,27.068, 477
250,27.176, -243
251,27.283, -153
252,27.392, -614
253,27.499, 345
254,27.606, 63
255,27.714, 556
256,27.824, -435
257,27.928, -6
258,28.035, 607
259,28.145, -122
260,28.253, -719
261,28.361, -671
262,28.471, -365
263,28.58, -329
264,28.688, 36
265,28.795, -360
266,28.904, -285
267,29.01, 374
268,29.119, -794
269,29.227, -920
270,29.336, -827
271,29.444, 239
272,29.554, -594
273,29.661, -556
274,29.769, -8
275,29.878, 878
276,29.988, 700
277,30.099, -272
278,30.205, 882
279,30.313, -572
280,30.422, -244
281,30.532, 909
282,30.642, 570
283,30.75, 927
284,30.858, -358
285,30.967, -182
286,31.075, -730
287,31.182, -591
288,31.292, 25
289,31.398, 171
290,31.506, -226
291,31.613, 750
292,31.72, 103
293,31.827, -23
294,31.934, 812
295,32.045, 794
296,32.152, 369
297,32.259, -28
298,32.368, -537
299,32.477, -1160
300,32.589, -391
301,32.697, 318
302,32.806, 629
303,32.916, 261
304,33.022, -146
305,33.131, 915
306,33.239, -684
307,33.349, 351
308,33.459, 508
309,33.569, 47
310,33.675, 832
311,33.782, 87
312,33.891, 682
313,33.998, -76
314,34.105, 226
315,34.216, 739
316,34.323, -479
317,34.434, 642
318,34.542, -331
319,34.65, 343
320,34.758, 699
321,34.865, 559
322,34.974, -21
323,35.08, 559
324,35.187, 45
325,35.294, 292
326,35.402, -402
327,35.511, -168
328,35.62, 594
329,35.727, 512
330,35.837, -777
331,35.945, 107
332,36.053, 358
333,36.162, -327
334,36.271, 389
335,36.379, -607
336,36.487, -182
337,36.596, 113
338,36.703, -222
339,36.813, -371
340,36.923, 47
341,37.032, -118
342,37.141, -204
343,37.25, -757
344,37.359, 69
345,37.466, -332
346,37.575, -746
347,37.682, -479
348,37.79, -38
349,37.899, 642
350,38.008, 726
351,38.114, 87
352,38.224, -462
353,38.329, 96
354,38.437, 45
355,38.544, 72
356,38.654, 451
357,38.764, 814
358,38.874, 380
359,38.983, -721
360,39.092, -96
361,39.199, -772
362,39.307, 70
363,39.416, -343
364,39.525, -693
365,39.633, -468
366,39.741, 783
367,39.85, 74
368,39.959, -74
369,40.069, -133
370,40.18, 400
371,40.29, 287
372,40.398, 488
373,40.506, 47
374,40.615, -164
375,40.724, -292
376,40.831, -340
377,40.939, 233
378,41.048, 594
379,41.157, -63
380,41.267, -587
381,41.374, -190
382,41.484, -221
383,41.593, -307
384,41.701, 157
385,41.81, -457
386,41.92, -345
387,42.029, 737
388,42.139, -135
389,42.247, -105
390,42.355, 56
391,42.464, -838
392,42.572, 638
393,42.68, -190
394,42.788, -323
395,42.898, 645
396,43.006, -508
397,43.114, -14
398,43.223, 1123
399,43.331, -578
400,43.44, 87
401,43.55, -341
402,43.656, -25
403,43.764, 702
404,43.875, 131
405,43.988, -215
406,44.112, 660
407,44.236, -598
408,44.364, -263
409,44.512, 631
410,44.646, -173
411,44.799, 508
412,44.928, -779
413,45.067, -69
414,45.209, -526
415,45.349, 199
416,45.476, -420
417,45.614, -254
418,46.218, 109
419,46.351, -658
420,46.559, -409
421,46.68, -677
422,46.803, 669
423,46.931, -384
424,47.053, 19
425,47.161, 257
426,47.271, -686
427,47.38, 387
428,47.489, -5
429,47.597, 179
430,47.707, -146
431,47.816, 537
432,47.925, 257
433,48.036, 504
434,48.143, -179
435,48.254, 102
436,48.363, 1070
437,48.47, -173
438,48.578, 545
439,48.689, 124
440,48.797, -744
441,48.908, -146
442,49.018, -54
443,49.124, -290
444,49.232, -418
445,49.341, 805
446,49.451, 781
447,49.559, 5
448,49.668, -248
449,49.774, -614
450,49.884, -444
451,49.993, -314
452,50.1, -109
453,50.21, 334
454,50.32, 464
455,50.428, -43
456,50.536, 157
457,50.644, -190
458,50.752, -131
459,50.859, -865
460,50.969, -644
461,51.076, 402
462,51.185, -153
463,51.294, 69
464,51.401, -111
465,51.509, -287
466,51.615, 785
467,51.723, 752
468,51.831, -629
469,51.939, -711
470,52.049, 468
471,52.154, -162
472,52.261, 235
473,52.369, -437
474,52.476, -666
475,52.584, 149
476,52.694, 600
477,52.802, 28
478,52.909, 310
479,53.017, -448
480,53.124, -32
481,53.231, -591
482,53.338, 547
483,53.446, 786
484,53.555, 87
485,53.662, 241
486,53.771, 431
487,53.878, -19
488,53.985, 215
489,54.092, 25
490,54.2, -61
491,54.309, -301
492,54.416, -19
493,54.523, 208
494,54.631, 124
495,54.741, 693
496,54.849, 609
497,54.957, 8
498,55.066, 649
499,55.175, -631
500,55.284, -614
501,55.394, -65
502,55.503, -819
503,55.612, 16
504,55.721, -1063
505,55.828, -439
506,55.935, 759
507,56.044, 669
508,56.152, -52
509,56.259, -721
510,56.367, 27
511,56.477, -179
512,56.585, -27
513,56.694, -151
514,56.804, -612
515,56.913, 105
516,57.021, 309
517,57.13, 722
518,57.237, -47
519,57.346, -230
520,57.455, 63
521,57.564, -649
522,57.674, -298
523,57.782, 644
524,57.89, -111
525,57.998, -76
526,58.109, -210
527,58.216, 484
528,58.323, 783
529,58.432, 263
530,58.538, 146
531,58.648, 310
532,58.757, -508
533,58.867, 633
534,58.977, -111
535,59.087, -261
536,59.193, -312
537,59.3, 17
538,59.408, 739
539,59.515, 391
540,59.623, 6
541,59.73, 471
542,59.841, 49
543,59.95, 506
544,60.059, -473
545,60.167, 951
546,60.276, -488
547,60.385, -168
548,60.491, -265
549,60.6, 852
550,60.708, -660
551,60.815, -177
552,60.924, -475
553,61.032, -492
