i,Tiempo,V error
1,0.0, 0
2,0.109, -37
3,0.218, 55
4,0.324, -55
5,0.434, -18
6,0.541, 37
7,0.651, 18
8,0.76, 18
9,0.869, 0
10,0.98, 18
11,1.088, 0
12,1.307, 188
13,1.417, 119
14,1.527, 318
15,1.637, -195
16,1.742, -887
17,1.851, 1444
18,1.958, 1034
19,2.067, 153
20,2.176, 16
21,2.285, 539
22,2.393, 43
23,2.5, 424
24,2.608, 913
25,2.716, -623
26,2.824, 91
27,2.935, -1231
28,3.044, -305
29,3.153, -627
30,3.261, 151
31,3.367, -673
32,3.476, 858
33,3.586, -254
34,3.696, -39
35,3.808, -184
36,3.921, -413
37,4.037, 116
38,4.146, 940
39,4.254, 660
40,4.362, 127
41,4.47, -133
42,4.581, 230
43,4.69, -204
44,4.801, -287
45,4.911, -382
46,5.018, 125
47,5.128, 645
48,5.237, 369
49,5.344, 662
50,5.454, -164
51,5.563, 89
52,5.676, 464
53,5.781, 689
54,5.89, -1248
55,5.996, 836
56,6.104, -347
57,6.212, 711
58,6.32, -772
59,6.431, -530
60,6.539, 988
61,6.647, 415
62,6.755, -508
63,6.862, -521
64,6.971, -406
65,7.079, -638
66,7.189, -92
67,7.295, 144
68,7.404, -147
69,7.513, -168
70,7.62, -180
71,7.729, -995
72,7.837, -312
73,7.946, 122
74,8.052, 65
75,8.159, -352
76,8.269, 898
77,8.375, 492
78,8.485, -444
79,8.594, 149
80,8.703, -334
81,8.812, 6
82,8.922, 237
83,9.032, -506
84,9.139, 1252
85,9.249, -149
86,9.359, 102
87,9.467, 541
88,9.576, 131
89,9.686, -1446
90,9.792, 186
91,9.901, -27
92,10.009, 975
93,10.118, -922
94,10.225, 39
95,10.334, 807
96,10.443, -655
97,10.55, 49
98,10.659, 541
99,10.767, 27
100,10.876, -695
101,10.985, 1312
102,11.094, 426
103,11.203, -453
104,11.311, -435
105,11.421, -570
106,11.528, -314
107,11.635, 1570
108,11.745, 69
109,11.852, 874
110,11.961, 1010
111,12.07, -217
112,12.178, 431
113,12.286, 354
114,12.394, 719
115,12.503, -305
116,12.611, -964
117,12.72, 411
118,12.827, -439
119,12.935, -307
120,13.044, -153
121,13.152, -380
122,13.259, -1374
123,13.368, 1061
124,13.477, -1239
125,13.585, 1312
126,13.694, 1845
127,13.802, -352
128,13.91, -587
129,14.019, 684
130,14.128, 164
131,14.252, -1425
132,14.361, 191
133,14.471, -135
134,14.58, -482
135,14.69, -109
136,14.798, 1779
137,14.909, -556
138,15.017, 8
139,15.125, 213
140,15.234, -190
141,15.341, 722
142,15.449, -1242
143,15.557, -60
144,15.666, -863
145,15.777, -175
146,15.885, 36
147,15.993, 28
148,16.099, -1394
149,16.207, 931
150,16.317, 605
151,16.426, -951
152,16.533, 550
153,16.643, -131
154,16.752, -50
155,16.86, -160
156,16.968, -534
157,17.077, -1173
158,17.188, 911
159,17.295, 739
160,17.403, 927
161,17.513, -1658
162,17.622, -400
163,17.73, -757
164,17.838, 54
165,17.946, -292
166,18.055, -669
167,18.163, -144
168,18.271, -94
169,18.381, -396
170,18.491, -243
171,18.601, -122
172,18.71, -689
173,18.817, 230
174,18.926, -27
175,19.036, 580
176,19.143, 420
177,19.252, -1079
178,19.361, 239
179,19.468, -228
180,19.576, 490
181,19.684, -1958
182,19.791, 1046
183,19.897, -461
184,20.006, 96
185,20.114, 468
186,20.223, 843
187,20.33, 36
188,20.439, 45
189,20.547, -706
190,20.653, -450
191,20.762, -204
192,20.87, 536
193,20.978, 1045
194,21.087, 310
195,21.196, 116
196,21.302, -651
197,21.411, 369
198,21.522, 598
199,21.629, 43
200,21.736, -1191
201,21.843, -314
202,21.95, -210
203,22.057, -852
204,22.164, -228
205,22.273, -581
206,22.38, 285
207,22.487, -552
208,22.596, -96
209,22.705, -201
210,22.812, -530
211,22.92, -970
212,23.027, -299
213,23.136, -285
214,23.245, 609
215,23.353, 726
216,23.461, -563
217,23.57, -1028
218,23.681, -343
219,23.79, 453
220,23.899, 103
221,24.005, -142
222,24.115, -1242
223,24.223, -41
224,24.332, -351
225,24.44, -834
226,24.549, 439
227,24.658, 290
228,24.767, 1024
229,24.876, 54
230,24.983, 666
231,25.092, -466
232,25.202, 664
233,25.31, 702
234,25.416, 69
235,25.522, -499
236,25.632, 1220
237,25.739, 1740
238,25.848, -493
239,25.957, -230
240,26.065, -785
241,26.174, 318
242,26.285, 629
243,26.393, 140
244,26.502, 367
245,26.608, -254
246,26.717, -710
247,26.825, 12
248,26.934, 415
249,27.041, 56
250,27.151, -462
251,27.257, 266
252,27.365, -380
253,27.473, -19
254,27.58, 19
255,27.689, -545
256,27.797, -1107
257,27.904, -644
258,28.013, 567
259,28.123, 596
260,28.232, 276
261,28.34, 638
262,28.45, -1902
263,28.556, 1583
264,28.665, -351
265,28.772, -1
266,28.883, 543
267,28.992, 67
268,29.099, 91
269,29.207, -369
270,29.318, -871
271,29.426, 717
272,29.533, -512
273,29.643, -67
274,29.752, -164
275,29.86, -136
276,29.97, 640
277,30.076, -642
278,30.183, -28
279,30.292, -1387
280,30.398, 155
281,30.506, -631
282,30.614, -493
283,30.721, -334
284,30.832, -157
285,30.94, 371
286,31.05, -254
287,31.157, 1491
288,31.265, -56
289,31.374, -796
290,31.482, 237
291,31.59, -600
292,31.698, 60
293,31.805, 23
294,31.913, -89
295,32.02, 1539
296,32.129, 155
297,32.237, 834
298,32.344, -482
299,32.453, -277
300,32.562, 415
301,32.67, -468
302,32.778, 611
303,32.887, 327
304,32.996, -296
305,33.103, 171
306,33.211, -1045
307,33.318, 466
308,33.427, 607
309,33.535, -865
310,33.643, -684
311,33.75, -136
312,33.858, -173
313,33.966, 431
314,34.072, -653
315,34.18, 279
316,34.286, -1382
317,34.393, 124
318,34.501, -742
319,34.609, -1369
320,34.718, -336
321,34.827, 748
322,34.935, -453
323,35.045, 501
324,35.152, 836
325,35.26, -559
326,35.367, 248
327,35.474, -87
328,35.58, 17
329,35.688, -938
330,35.799, -158
331,35.91, 534
332,36.02, -60
333,36.131, -182
334,36.238, 440
335,36.345, 1402
336,36.453, -569
337,36.562, 724
338,36.669, -671
339,36.777, 896
340,36.884, -1237
341,36.993, -1230
342,37.099, 166
343,37.207, -387
344,37.316, -1435
345,37.424, 995
346,37.534, 147
347,37.64, -429
348,37.748, 5
349,37.856, -407
350,37.964, -36
351,38.073, -583
352,38.181, 508
353,38.289, -554
354,38.397, -384
355,38.504, -1559
356,38.612, 1422
357,38.72, -398
358,38.828, 396
359,38.936, 763
360,39.044, -276
361,39.153, 1226
362,39.262, -735
363,39.369, 70
364,39.476, -609
365,39.585, -552
366,39.692, -618
367,39.801, -550
368,39.912, 30
369,40.019, 697
370,40.125, 618
371,40.233, -162
372,40.341, -940
373,40.449, -898
374,40.557, -523
375,40.667, -28
376,40.775, 849
377,40.883, 863
378,40.99, -1059
379,41.1, -519
380,41.207, 1112
381,41.315, -2189
382,41.423, 310
383,41.531, -574
384,41.642, -343
385,41.749, -389
386,41.862, 1447
387,41.968, 993
388,42.076, 638
389,42.187, 792
390,42.296, 369
391,42.405, 349
392,42.512, -666
393,42.621, -316
394,42.73, -437
395,42.838, -27
396,42.946, -155
397,43.056, 1013
398,43.168, 713
399,43.277, -591
400,43.386, 1068
401,43.493, 263
402,43.603, 30
403,43.712, -442
404,43.823, 1519
405,43.93, -475
406,44.038, 1
407,44.147, 356
408,44.255, -726
409,44.363, 1034
410,44.47, -358
411,44.578, 1508
412,44.685, 12
413,44.793, 492
414,44.901, 133
415,45.008, -1264
416,45.116, -202
417,45.223, 504
418,45.333, -766
419,45.443, -358
420,45.55, 111
421,45.66, -140
422,45.769, 1109
423,45.875, -16
424,45.983, -347
425,46.091, -1841
426,46.198, -836
427,46.307, -360
428,46.416, 391
429,46.523, -739
430,46.632, -250
431,46.742, 1387
432,46.851, 603
433,46.962, -354
434,47.069, -391
435,47.179, 927
436,47.287, 60
437,47.394, 396
438,47.503, -653
439,47.611, -398
440,47.72, -259
441,47.828, -525
442,47.937, -446
443,48.047, -274
444,48.155, -479
445,48.263, 623
446,48.371, 1056
447,48.479, 686
448,48.588, 63
449,48.696, -146
450,48.803, -5
451,48.91, 429
452,49.019, 1257
453,49.127, -363
454,49.235, -834
455,49.342, -547
456,49.449, -667
457,49.557, 287
458,49.664, -671
459,49.773, -327
460,49.88, -779
461,49.991, -448
462,50.101, -320
463,50.209, 843
464,50.315, -981
465,50.424, -124
466,50.531, -1200
467,50.638, -81
468,50.746, 341
469,50.855, -741
470,50.963, -442
471,51.072, -122
472,51.182, -407
473,51.29, 488
474,51.397, 6
475,51.507, 506
476,51.617, -158
477,51.724, -142
478,51.829, -457
479,51.937, -327
480,52.044, -1068
481,52.15, -155
482,52.258, -519
483,52.365, 1164
484,52.472, -735
485,52.58, -475
486,52.689, 69
487,52.796, 341
488,52.904, -204
489,53.014, 602
490,53.123, -307
491,53.233, -389
492,53.34, -428
493,53.45, 462
494,53.561, -1059
495,53.669, -157
496,53.777, 92
497,53.884, -70
498,53.994, -279
499,54.103, -162
500,54.211, -1363
501,54.32, 28
502,54.429, 559
503,54.535, 464
504,54.643, -175
505,54.753, 1848
506,54.862, 164
507,54.971, 259
508,55.08, 481
509,55.188, -61
510,55.295, 83
511,55.403, 973
512,55.51, 752
513,55.619, 724
514,55.729, -728
515,55.837, 724
516,55.944, 80
517,56.053, -640
518,56.161, -283
519,56.268, 369
520,56.377, -514
521,56.486, -19
522,56.596, -444
523,56.705, -823
524,56.813, 966
525,56.922, -114
526,57.031, 830
527,57.139, 865
528,57.247, 6
529,57.355, -21
530,57.464, 261
531,57.57, 316
532,57.679, -309
533,57.787, 865
534,57.897, -39
535,58.007, 1794
536,58.115, -576
537,58.224, 30
538,58.334, 493
539,58.442, -792
540,58.548, 1219
541,58.659, -543
542,58.765, 711
543,58.876, -1446
544,58.985, 184
545,59.093, 250
546,59.203, -1358
547,59.311, -942
548,59.422, -404
549,59.53, -268
550,59.637, -382
551,59.745, -129
552,59.854, 567
553,59.961, 1279
554,60.071, -677
555,60.178, 1264
556,60.285, -276
557,60.393, -766
558,60.499, -23
559,60.606, 997
560,60.714, -1585
561,60.824, -320
562,60.933, -975
563,61.042, 667
