i,Tiempo,V error
1,0.0, 18
2,0.108, 0
3,0.217, 53
4,0.325, -71
5,0.432, 35
6,0.54, -53
7,0.648, 0
8,0.756, -18
9,0.865, 71
10,0.974, 0
11,1.081, 35
12,1.297, 562
13,1.408, 27
14,1.517, 466
15,1.634, -268
16,1.753, 981
17,1.903, 1713
18,2.04, 638
19,2.172, 649
20,2.298, -510
21,2.424, 512
22,2.552, 221
23,2.679, 988
24,2.85, -58
25,2.973, -700
26,3.118, -83
27,3.298, 862
28,3.496, -83
29,3.653, -239
30,3.777, 570
31,3.903, -142
32,4.154, 550
33,4.283, 63
34,4.684, 1550
35,4.794, -428
36,4.9, 429
37,5.007, -398
38,5.116, -640
39,5.226, -1067
40,5.335, -640
41,5.478, 640
42,5.585, -396
43,5.694, 1781
44,5.803, 316
45,5.913, 713
46,6.022, 334
47,6.131, 25
48,6.242, -376
49,6.35, -232
50,6.46, -226
51,6.567, 91
52,6.679, -774
53,6.786, 396
54,6.896, 32
55,7.006, 834
56,7.114, -1001
57,7.222, -81
58,7.331, 118
59,7.457, 281
60,7.564, 583
61,7.672, 876
62,7.782, -263
63,7.891, -118
64,8.003, 543
65,8.113, -1054
66,8.22, -259
67,8.33, 332
68,8.436, 246
69,8.544, -1404
70,8.653, -497
71,8.763, 872
72,8.871, 719
73,8.979, -5
74,9.087, 988
75,9.195, 373
76,9.304, 1372
77,9.412, -1755
78,9.518, -459
79,9.628, -367
80,9.736, 358
81,9.847, -803
82,9.954, 118
83,10.066, 900
84,10.176, -1143
85,10.285, -1301
86,10.394, -1306
87,10.501, 347
88,10.612, -184
89,10.718, 567
90,10.826, -1325
91,10.935, 711
92,11.044, -58
93,11.152, 190
94,11.263, 191
95,11.37, 67
96,11.478, 849
97,11.585, -329
98,11.694, 411
99,11.804, -523
100,11.914, -285
101,12.023, 664
102,12.131, 351
103,12.243, -219
104,12.351, -984
105,12.461, 208
106,12.571, 645
107,12.682, -1305
108,12.792, 360
109,12.902, -50
110,13.01, 276
111,13.116, 277
112,13.223, -1195
113,13.333, 204
114,13.445, 363
115,13.555, 422
116,13.663, 5
117,13.77, -10
118,13.875, 136
119,13.984, -70
120,14.094, 589
121,14.202, -1219
122,14.31, 389
123,14.417, -484
124,14.523, -1116
125,14.631, -89
126,14.738, -774
127,14.85, 744
128,14.96, -52
129,15.069, 1532
130,15.178, 636
131,15.287, 1100
132,15.395, -565
133,15.504, -72
134,15.61, -1056
135,15.717, -521
136,15.824, -1211
137,15.932, -228
138,16.044, 426
139,16.154, -233
140,16.262, 336
141,16.37, -347
142,16.475, 633
143,16.587, -54
144,16.696, -321
145,16.804, 32
146,16.915, -856
147,17.026, -598
148,17.135, 493
149,17.247, 625
150,17.354, -301
151,17.463, 1314
152,17.572, -396
153,17.679, -942
154,17.788, 221
155,17.895, 100
156,18.003, 525
157,18.112, -1396
158,18.22, -188
159,18.328, 1334
160,18.435, 616
161,18.548, 1
162,18.668, 589
163,18.777, -153
164,18.887, -323
165,18.997, 49
166,19.105, 477
167,19.213, -138
168,19.321, 323
169,19.429, -265
170,19.537, 179
171,19.647, -1087
172,19.789, -343
173,19.898, 327
174,20.007, -464
175,20.117, -753
176,20.225, 334
177,20.334, -147
178,20.444, -450
179,20.554, -67
180,20.664, 977
181,20.774, -722
182,20.881, 334
183,20.994, 671
184,21.103, 352
185,21.212, -1506
186,21.321, -486
187,21.432, -391
188,21.541, 180
189,21.649, 539
190,21.758, -103
191,21.867, -1198
192,21.975, -182
193,22.084, 1832
194,22.193, -70
195,22.301, -622
196,22.408, -197
197,22.516, 265
198,22.624, -63
199,22.734, -838
200,22.843, 748
201,22.951, -281
202,23.061, 114
203,23.169, -424
204,23.276, 964
205,23.386, -534
206,23.493, 790
207,23.601, 382
208,23.709, 1365
209,23.818, -1096
210,23.928, -314
211,24.035, -503
212,24.144, 380
213,24.251, -763
214,24.36, -1171
215,24.47, 96
216,24.579, -202
217,24.69, 168
218,24.799, -98
219,24.907, -858
220,25.015, -1565
221,25.124, 1614
222,25.233, -506
223,25.342, -398
224,25.448, 554
225,25.559, -596
226,25.665, -949
227,25.774, 5
228,25.883, -230
229,25.993, -199
230,26.103, 418
231,26.211, 233
232,26.32, -724
233,26.427, 8
234,26.536, -182
235,26.644, 721
236,26.753, -732
237,26.862, 1065
238,26.972, -195
239,27.081, 471
240,27.191, 909
241,27.3, -184
242,27.408, -849
243,27.515, -373
244,27.623, -508
245,27.732, 567
246,27.839, 417
247,27.946, 508
248,28.054, -1294
249,28.164, -605
250,28.273, 504
251,28.381, 742
252,28.488, 136
253,28.596, 913
254,28.707, 1631
255,28.816, -799
256,28.925, 309
257,29.032, -349
258,29.139, -420
259,29.247, 301
260,29.355, -521
261,29.463, 446
262,29.57, -144
263,29.678, 852
264,29.787, -752
265,29.896, 737
266,30.003, -1801
267,30.111, 6
268,30.218, -437
269,30.328, 217
270,30.436, 596
271,30.544, 396
272,30.652, 83
273,30.761, -190
274,30.87, 982
275,30.978, -107
276,31.086, 481
277,31.194, -325
278,31.303, -362
279,31.41, 160
280,31.521, -395
281,31.627, 497
282,31.735, 160
283,31.842, 799
284,31.949, 534
285,32.058, 684
286,32.168, -918
287,32.277, 140
288,32.386, -746
289,32.495, 627
290,32.606, -796
291,32.716, -36
292,32.824, -1142
293,32.932, 100
294,33.043, 81
295,33.151, 193
296,33.26, 309
297,33.369, 550
298,33.477, 358
299,33.586, -356
300,33.695, 1680
301,33.804, 605
302,33.915, 257
303,34.024, 514
304,34.132, -1116
305,34.241, -428
306,34.349, -552
307,34.458, 874
308,34.568, -3
309,34.675, 175
310,34.783, -299
311,34.89, 332
312,35.0, 387
313,35.107, 532
314,35.214, 464
315,35.321, 523
316,35.431, 810
317,35.54, 688
318,35.648, 129
319,35.757, -85
320,35.866, 153
321,35.974, 451
322,36.082, 920
323,36.191, -140
324,36.3, -193
325,36.41, -634
326,36.518, -171
327,36.628, -1588
328,36.736, -38
329,36.843, 307
330,36.953, 589
331,37.064, 404
332,37.172, 374
333,37.281, 285
334,37.39, 464
335,37.499, 514
336,37.606, -634
337,37.713, -413
338,37.823, 285
339,37.93, 287
340,38.038, -118
341,38.146, -1424
342,38.254, 625
343,38.362, -351
344,38.469, -398
345,38.578, -1572
346,38.688, 111
347,38.798, -188
348,38.906, 603
349,39.015, 336
350,39.124, -142
351,39.232, -327
352,39.342, -67
353,39.45, -1037
354,39.558, -420
355,39.669, -16
356,39.775, -803
357,39.882, 1054
358,39.992, -482
359,40.1, -664
360,40.208, -395
361,40.316, 65
362,40.425, -294
363,40.533, 960
364,40.642, 116
365,40.751, -341
366,40.86, 777
367,40.966, -490
368,41.073, 395
369,41.181, 41
370,41.291, -228
371,41.398, 195
372,41.506, 810
373,41.614, -1356
374,41.723, 10
375,41.831, 144
376,41.94, -852
377,42.051, -91
378,42.158, -125
379,42.266, 964
380,42.374, -490
381,42.483, -92
382,42.592, -457
383,42.702, 580
384,42.809, -986
385,42.916, -574
386,43.025, -294
387,43.134, -415
388,43.241, 193
389,43.349, -61
390,43.459, 459
391,43.567, 398
392,43.674, 166
393,43.783, -374
394,43.891, -122
395,44.0, 1383
396,44.108, -852
397,44.216, 554
398,44.325, 263
399,44.434, -237
400,44.541, -462
401,44.651, 413
402,44.758, -118
403,44.867, -686
404,44.976, -384
405,45.087, 70
406,45.194, -257
407,45.301, -750
408,45.411, -213
409,45.522, 570
410,45.631, 708
411,45.74, 211
412,45.849, -1435
413,45.955, 1433
414,46.064, -226
415,46.174, -213
416,46.282, -228
417,46.391, -450
418,46.499, -241
419,46.609, 484
420,46.715, -67
421,46.822, -360
422,46.93, -920
423,47.039, -561
424,47.148, -567
425,47.257, -739
426,47.367, -180
427,47.475, 246
428,47.584, -1184
429,47.691, -109
430,47.797, -695
431,47.906, -129
432,48.016, -263
433,48.126, 807
434,48.234, 294
435,48.342, -766
436,48.452, -338
437,48.562, 686
438,48.672, 818
439,48.782, -882
440,48.89, 429
441,48.997, -1552
442,49.108, 36
443,49.216, -523
444,49.325, -354
445,49.433, -453
446,49.542, -1043
447,49.651, -281
448,49.759, 691
449,49.868, 52
450,49.978, -612
451,50.087, 358
452,50.196, 746
453,50.305, 283
454,50.414, 490
455,50.522, 702
456,50.629, 321
457,50.738, 856
458,50.846, -721
459,50.956, -321
460,51.064, 543
461,51.171, -457
462,51.278, -894
463,51.387, -742
464,51.495, -301
465,51.603, -473
466,51.713, -1270
467,51.822, 166
468,51.932, 272
469,52.041, -298
470,52.149, 1165
471,52.257, 135
472,52.366, -1242
473,52.474, 142
474,52.583, -1924
475,52.691, 916
476,52.802, 171
477,52.91, 1616
478,53.02, -309
479,53.127, 8
480,53.237, 554
481,53.344, 596
482,53.451, 125
483,53.56, -38
484,53.668, 50
485,53.777, -281
486,53.887, 647
487,53.997, -603
488,54.104, -270
489,54.212, -1526
490,54.32, 1120
491,54.428, -122
492,54.538, -623
493,54.645, -689
494,54.756, 356
495,54.863, -175
496,54.973, 563
497,55.079, 1193
498,55.187, -219
499,55.296, 122
500,55.407, 1054
501,55.516, 292
502,55.624, 49
503,55.732, 186
504,55.842, -28
505,55.951, 321
506,56.057, 570
507,56.167, -1100
508,56.275, 327
509,56.383, -49
510,56.491, 6
511,56.599, 393
512,56.708, -1101
513,56.819, 431
514,56.928, 215
515,57.037, -191
516,57.146, -596
517,57.256, 358
518,57.363, 332
519,57.471, 964
520,57.581, 149
521,57.689, 1748
522,57.797, 578
523,57.904, -407
524,58.011, 471
525,58.119, -43
526,58.229, 294
527,58.337, 669
528,58.445, 433
529,58.556, 1490
530,58.664, -499
531,58.774, -118
532,58.881, 583
533,58.993, -177
534,59.099, 1206
535,59.206, 611
536,59.314, 235
537,59.423, -277
538,59.53, -512
539,59.64, 510
540,59.749, 1400
541,59.858, 124
542,59.964, -1032
543,60.073, 512
544,60.181, -347
545,60.29, 232
546,60.397, -1339
547,60.504, -92
548,60.612, -294
549,60.721, -332
550,60.829, 195
551,60.938, -85
552,61.047, -591
